[ {
  "name" : "Common",
  "type" : "PARTIAL"
}, {
  "name" : "Login",
  "type" : "PAGE"
}, {
  "name" : "Main",
  "type" : "PAGE"
}, {
  "name" : "Page",
  "type" : "PAGE"
}, {
  "name" : "Page1",
  "type" : "PAGE"
}, {
  "name" : "footer",
  "type" : "FOOTER"
}, {
  "name" : "header",
  "type" : "HEADER"
}, {
  "name" : "leftnav",
  "type" : "LEFTNAV"
}, {
  "name" : "rightnav",
  "type" : "RIGHTNAV"
}, {
  "name" : "testpage",
  "type" : "PAGE"
}, {
  "name" : "topnav",
  "type" : "TOPNAV"
} ]