{
  "username" : "{WM_CLOUD_MYSQL_USER_NAME}",
  "password" : "{WM_CLOUD_MYSQL_PASSWORD}",
  "url" : "jdbc:mysql://{WM_CLOUD_MYSQL_HOST}/TestDB?useUnicode=yes&characterEncoding=UTF-8&zeroDateTimeBehavior=convertToNull",
  "driverClass" : "com.mysql.jdbc.Driver",
  "dialect" : "com.wavemaker.runtime.data.dialect.MySQLDialect",
  "serviceId" : "TestDB",
  "packageName" : "com.pagesconfigtest.testdb",
  "dbType" : "MySQL",
  "host" : "{WM_CLOUD_MYSQL_HOST}",
  "dbName" : "TestDB",
  "port" : "",
  "schemaName" : "employee",
  "tableFilter" : [ ".*" ],
  "schemaFilter" : [ ".*" ],
  "impersonateUser" : false,
  "activeDirectoryDomain" : null,
  "hbm2ddl" : "update",
  "maxPageSize" : 100,
  "dataSourceType" : "WM_MANAGED_DATASOURCE",
  "jndiName" : "",
  "readOnly" : false
}