{
  "description" : "TestDB",
  "draft" : true,
  "name" : "TestDB",
  "packageName" : "com.pagesconfigtest.testdb",
  "tables" : [ {
    "catalog" : null,
    "columns" : [ {
      "defaultValue" : "",
      "fieldName" : "id",
      "foreignKey" : false,
      "generator" : "identity",
      "javaType" : "integer",
      "length" : 255,
      "name" : "ID",
      "nullable" : false,
      "oldName" : null,
      "partOfAnyRelation" : false,
      "partOfPrimaryKey" : true,
      "precision" : 10,
      "primaryKey" : true,
      "scale" : 0,
      "sequenceName" : "",
      "sqlType" : "number",
      "unique" : true
    } ],
    "constraints" : [ ],
    "entityName" : "Table1",
    "fullyQualifiedName" : "com.pagesconfigtest.testdb.Table1",
    "name" : "TABLE1",
    "oldName" : null,
    "primaryKey" : {
      "columns" : [ "ID" ],
      "composite" : false,
      "name" : null,
      "virtual" : false
    },
    "relations" : [ ],
    "schema" : null,
    "type" : "TABLE"
  } ]
}