{
  "httpBasicAuthUsername" : "",
  "httpBasicAuthPassword" : "",
  "endpointAddress" : "http://www.webservicex.com/stockquote.asmx",
  "connectionTimeout" : 10000,
  "requestTimeout" : 10000,
  "soapActionURI" : null,
  "httpHeaders" : { }
}