{
  "endpointAddress" : "http://maps.googleapis.com/maps/api/directions/xml",
  "method" : "GET",
  "contentType" : "text/xml",
  "requestBody" : "",
  "authType" : "NONE",
  "headers" : { },
  "queryParams" : {
    "sensor" : "false",
    "origin" : "Toronto",
    "destination" : "Montreal"
  },
  "sampleRestResponse" : {
    "responseBody" : "<?xml version=\"1.0\" encoding=\"UTF-8\"?>\n<DirectionsResponse>\n <status>OK</status>\n <route>\n  <summary>ON-401 E</summary>\n  <leg>\n   <step>\n    <travel_mode>DRIVING</travel_mode>\n    <start_location>\n     <lat>43.6533103</lat>\n     <lng>-79.3827675</lng>\n    </start_location>\n    <end_location>\n     <lat>43.6557259</lat>\n     <lng>-79.3837332</lng>\n    </end_location>\n    <polyline>\n     <points>e`miGhmocNgBf@cBb@KBcErAk@P[H</points>\n    </polyline>\n    <duration>\n     <value>61</value>\n     <text>1 min</text>\n    </duration>\n    <html_instructions>Head &lt;b&gt;north&lt;/b&gt; on &lt;b&gt;Bay St&lt;/b&gt; toward &lt;b&gt;Hagerman St&lt;/b&gt;</html_instructions>\n    <distance>\n     <value>280</value>\n     <text>0.3 km</text>\n    </distance>\n   </step>\n   <step>\n    <travel_mode>DRIVING</travel_mode>\n    <start_location>\n     <lat>43.6557259</lat>\n     <lng>-79.3837332</lng>\n    </start_location>\n    <end_location>\n     <lat>43.6618361</lat>\n     <lng>-79.3545312</lng>\n    </end_location>\n    <polyline>\n     <points>iomiGhsocNCWi@gEGc@?CAASaB[}BGk@E_@CKCSM}@?E?CAI?I@M?EVgBBQ\\{B?QSqBq@iF[wBe@qDm@{Eo@{ECGEIEIGEII]QOMQMKMOQKQIOIQISESIWEUESCYAWA]?]D}@?GAKAMe@_Da@oCi@}DYsB[yB]aCCUYuB_@wC]qCa@wCa@sCY{BAKYmBe@aDWiBKy@WgBeAoH[{Bs@eFAKUmDWmD</points>\n    </polyline>\n    <duration>\n     <value>488</value>\n     <text>8 mins</text>\n    </duration>\n    <html_instructions>Turn &lt;b&gt;right&lt;/b&gt; onto &lt;b&gt;Dundas St W&lt;/b&gt;</html_instructions>\n    <distance>\n     <value>2492</value>\n     <text>2.5 km</text>\n    </distance>\n    <maneuver>turn-right</maneuver>\n   </step>\n   <step>\n    <travel_mode>DRIVING</travel_mode>\n    <start_location>\n     <lat>43.6618361</lat>\n     <lng>-79.3545312</lng>\n    </start_location>\n    <end_location>\n     <lat>43.6635765</lat>\n     <lng>-79.3554817</lng>\n    </end_location>\n    <polyline>\n     <points>ouniGx|icNUJy@^oBz@u@Zc@Nk@PEBCBKN</points>\n    </polyline>\n    <duration>\n     <value>21</value>\n     <text>1 min</text>\n    </duration>\n    <html_instructions>Turn &lt;b&gt;left&lt;/b&gt; onto the &lt;b&gt;Don Valley Parkway&lt;/b&gt; ramp</html_instructions>\n    <distance>\n     <value>209</value>\n     <text>0.2 km</text>\n    </distance>\n   </step>\n   <step>\n    <travel_mode>DRIVING</travel_mode>\n    <start_location>\n     <lat>43.6635765</lat>\n     <lng>-79.3554817</lng>\n    </start_location>\n    <end_location>\n     <lat>43.7628269</lat>\n     <lng>-79.3366936</lng>\n    </end_location>\n    <polyline>\n     <points>k`oiGvbjcNiBXyCl@wAXw@RmEv@ODgB^uBb@MB}Bb@qBb@_AVWJSHm@T{@b@gAt@q@f@w@p@uChCgB|Au@p@a@\\o@d@o@d@y@j@e@X]Pm@Z]N}@\\qA`@}@\\k@Ns@RiCb@aBXyARkCXcDToBHmBJqAHiAHo@BcABYAg@COAWEQEYGSEu@Wo@U{@Yy@[q@WgCcAk@Sk@Qm@S}@Uc@G]EcAIo@Cs@Cu@?s@?q@?s@AyAIu@Gi@I_@Gy@Og@Mc@I_@Ke@OYK_@Qq@Wo@[gAi@c@YeAw@}@q@a@]]Yc@c@g@i@a@e@o@w@{EwFo@y@{AmBiB{BkGaIW]Y_@MQs@kA[k@Wm@Wo@Sq@Ss@Oq@Mq@Ku@Ku@Iw@Ew@CcAA}@@aBDcAFyAFaALgBf@{HJyAJaCBqA@o@?q@Ac@Am@G_AEe@Gk@OgAMy@UcAOk@k@eBSc@Ym@MWS]c@u@[g@[e@{CeEcAaBWg@Wm@e@mAGQe@uAWu@]iAaAkDe@eBSi@Wo@Wm@[o@_@m@W_@SUw@_AOQ[YSO[UQKUMQG]QOEk@Q[IsA[a@GwAU}AQ}@Ms@M_AK}@Mg@IMCMAy@Qk@Qe@QQGe@SWOYOYUQO[W]_@]]Y]W]c@m@{@uAyCqEMSyBeDk@y@Ya@SWW]a@i@a@a@YUq@k@oAs@[Oq@USG]KYG]GSCi@Co@As@@e@BYDw@J{@Rk@R]Le@Ta@RSLKHUNKHURWTa@^YXcDdDa@`@e@`@m@h@aBdA{BrA{@b@oDdBwAj@kBh@oBd@q@N{@L}BRiCRyAJC@c@@i@Bg@@qABu@AuCFkDFcEFyADiBHqAJoBP_D\\wBRaDX}Fx@uCb@yFv@}Dd@kAJs@Dk@@u@Bw@?}A@{B@{AAwBAeB?qBB]?]B{DRmCTuIjAmATkC^uARoALy@HmAHcCHyBH{AB{AFiADoAH[B{E^[DC?q@HoC`@_C^sAXyAZeB^yA^e@LK@{Ad@kAZkBd@u@NQBkAP}@N{@LuHlA{AVs@J_HfAcANcAL</points>\n    </polyline>\n    <duration>\n     <value>553</value>\n     <text>9 mins</text>\n    </duration>\n    <html_instructions>Merge onto &lt;b&gt;Don Valley Pkwy N&lt;/b&gt;</html_instructions>\n    <distance>\n     <value>12906</value>\n     <text>12.9 km</text>\n    </distance>\n    <maneuver>merge</maneuver>\n   </step>\n   <step>\n    <travel_mode>DRIVING</travel_mode>\n    <start_location>\n     <lat>43.7628269</lat>\n     <lng>-79.3366936</lng>\n    </start_location>\n    <end_location>\n     <lat>43.7680370</lat>\n     <lng>-79.3292631</lng>\n    </end_location>\n    <polyline>\n     <points>ulbjGhmfcNqA?gA@qA@iA@u@?yBIcDIuACUCOAOESGWMOKQQKQIOIOEOGUEQEUCYAWAQ?WCuDC{CESAEAIAo@EaAIwAKoCY_HGmBAOAGAESc@</points>\n    </polyline>\n    <duration>\n     <value>52</value>\n     <text>1 min</text>\n    </duration>\n    <html_instructions>Take the &lt;b&gt;ON-401 E&lt;/b&gt; exit</html_instructions>\n    <distance>\n     <value>1070</value>\n     <text>1.1 km</text>\n    </distance>\n    <maneuver>ramp-right</maneuver>\n   </step>\n   <step>\n    <travel_mode>DRIVING</travel_mode>\n    <start_location>\n     <lat>43.7680370</lat>\n     <lng>-79.3292631</lng>\n    </start_location>\n    <end_location>\n     <lat>43.8381168</lat>\n     <lng>-79.0719754</lng>\n    </end_location>\n    <polyline>\n     <points>gmcjGz~dcNGqFG_FAaAA{BC_HAkEAyB?qBAkC?oCAmCAsDAaF?{DAaDA}CCaCE{AEkBIiBGiAIqAIaAImAKkAOqAMiAQuAOmAUgBYkBSsA]gC[yB[mBUeBWaBm@{DCMSsAScB]eC_@mCg@gD[uBc@_DWcBYmBo@sEaAyGSoAs@_Fc@sCYeBo@qE]aC[aCuFs_@{@gGSsASuAwBeOiA{HM{@M{@eAmH_CmPM_AAAOsAwBoPm@yEo@kF_AeI{@aIWaC}@uHcI}s@oBgQg@mEiAkJkCcUy@uGeAwHq@uE{@yFiBaL_AkFy@oEi@wC]_B[_BmAcGoAyF}@_E{@yD_@}Ak@uB_@yAY}@s@_Ck@cBa@gAo@eB{@yBw@gBaAuBw@aBm@oA]q@oB_Ew@}A_@y@_@{@c@eA{@yBeA{Cu@cCw@qCU_As@{CYyAScAIg@Mq@a@iCOgAUgBWiCS}BI}@UsCYuDK{AQ{Bg@oGe@iGWgDUsCYyDmBkVWgDgAqNo@eI{@eL_@}EQeCqAqPiA{N_JqjAYiD[oEGsAImBEaDAmA?qA@cABwAB_ABy@FeAFiALmBH}@LkARsAVaBRyAf@kC|@{DxByItD}Nx@eDv@}Cv@aDz@sDTiAPcARmAPoALqAJiAHiAJoCB}@BcB?sBC_A?i@KuCOwBSmBMmAWaBKg@[eBYmAQo@s@eC[y@e@oAQ_@u@_Bc@{@gAqBqA{BqCuEmDyFiAiBgAgBwA_C_BkCqAwBeBuCwBsDa@w@Sc@Yi@Yi@a@s@Yi@Ye@KQo@gA}@eBy@_BeA{BaA}BuHiPuB}DI_@{DiHoCaFgC{EqK}S{BaEoE_IcMqT_BsCOWgHgMyBeD}@wAeDmFkB{Ca@m@uAyBoAqBaAcBw@uA]q@iA}B{@mBk@yAu@qBoCqHkDqJgB_F]_A[_AoAqDkDuJ}HiTqEgMkDuJSk@IUWo@{HoTeSuj@yCoIaCyGgA{CwAuDUk@_@cA_@eAAC?AAA?C@A?G</points>\n    </polyline>\n    <duration>\n     <value>734</value>\n     <text>12 mins</text>\n    </duration>\n    <html_instructions>Merge onto &lt;b&gt;Ontario 401 Express&lt;/b&gt;</html_instructions>\n    <distance>\n     <value>22985</value>\n     <text>23.0 km</text>\n    </distance>\n    <maneuver>merge</maneuver>\n   </step>\n   <step>\n    <travel_mode>DRIVING</travel_mode>\n    <start_location>\n     <lat>43.8381168</lat>\n     <lng>-79.0719754</lng>\n    </start_location>\n    <end_location>\n     <lat>45.2083667</lat>\n     <lng>-74.3482841</lng>\n    </end_location>\n    <polyline>\n     <points>gcqjGzvraNmAgDm@}AY{@M]k@}Aa@iAe@uAc@mAm@gBe@qAe@qAe@sAc@kAWu@Wu@i@wAAEe@qAc@oAqGmQ_Osa@a@kAQk@Wy@U}@Sq@Oq@UoAMk@Mu@WqBa@qDMeAq@{F{Ds\\G_@qCsUi@aEUsBWsBU_Cm@oFq@wF[uCWwBIq@[kCy@_H}@gHOkAm@mEyAoKUaBi@yCwBeN_@cCs@kEg@{CQkAkBgLyAiJw@_FcA{GuBkOEWCYESCSCSCS_@uC_@uC}AoLAQiAeKe@sDwAkKuB{NuAcK}AwJyHqf@aBsKe@cDY{AY_B}@wEqDyQeCsMmCgPeBcNqAeLkBwS_BuSqAsO_@kE_BwM{@aLUoGGyGBuFLsFrAw^BoAHeDFkDJqFNoHFwCBiBF_CHqDBcAL}ENuHFeDJaD@o@@oADwAD}ADmAFwB@y@LcFVwKFsD@WJqFP}IDyB@wA?iA?}AA_BA}AEcBEuAGoBKsBKwAK}AM}AQaBUwBWoB[}B]aCWkB[sBQgAGe@]aC_@iC]eCgAwH{Eu\\c@}C}B_P}Lk{@_BcLeCeQmByMqBoMCQe@mCy@sEUkAs@sDcA}EuEwTUgAo@aDEUwA}GgBiIi@qCWgAS_AUuAQcA[}BIc@M_AuDwWc@}CAEIm@aAsG}B_PWqBCMMw@OgAgA_IKm@qAgJEYyBcPsDcWc@gDIk@AGMu@kAmIwGce@g@kDYsBKs@OiAYqBMaACMMgAMo@U}Ba@sE[oEOyCUuFMmHCyC?{BFwI?GB_CDoBHyBHmBJcBJaBHiAL_BNiBRwBVqBR_BVmBJs@L}@f@}Cl@eDd@yBJi@Ja@Z{Ah@wBr@qCnBsG`AoC\\cAZy@\\{@Xq@l@{ATg@z@mBv@}ALY`@u@p@qApA{BjAmB`BmCbAcBfCcEbBsCh@_Av@sAvAyC`B_E`@kAVs@\\iAh@iB~@uDf@}BVyAb@cC`@sCJ_A^yDT_DPwDB}@D{ABwA@qA?{@?iAA_AA}@CwACmAE}@Cm@GuAIkAMuBiLegBw@qLwAuTYiEW{D_BwVK_Bk@{Iy@_Mu@oLwAqTc@oGO{BgE}o@wDel@w@{Lq@qKYeEUaDUoDQkCWyDa@eG[eF[yEO_CSuDSaDAGGmAqCyb@IkAI_AS{BMeAMmAIm@_@gCSsA[kB[{Aa@qBaA}D]oAe@aBUs@a@qAe@sAu@qBaAcCeCoGoKwXwCsHc@kAeBsEi@qAkB{EeAsCcByEk@gBm@mBQm@{AeF_AcD_B}FYiAoAiFa@cBg@yBQy@EQ{@kE[cBQ}@i@_Ds@gEo@sDQcAc@yCOiAk@sEa@kDIq@Gs@Ec@a@{DO{AQ{B_@mEUoCQ{BMkBKgBSqDOeDMeD{@uYc@gNi@mQAq@}Ami@u@qUe@sPoAab@CwBKqDEqBEwBIeDKo@AEIuBMsEOcFSsGe@cO]yHE}@E{@]eGa@kGWuD{@uJYoCWcCe@eEYaCkBiOqAiKmCqTg@}DIq@mBiOi@cEYcCwAyLiBcOkCaTeBuNkBkOy@qGKy@yAgLYaCQqAaBeNiB{NKy@kB{O_CqRiC{SqCeUQyAs@}FqAoKcAiIwAoL{@_HcBgNo@iFqAeKmAcKaAyHwBgQ_A}HcBgNq@qFcAgIi@oEs@sFcAkIsBwPeAsIaB{M_Ee\\w@sGy@uGY_Cg@mDq@cFmAwIc@eDoEc\\mBiNmA}IiAoIgA_Iu@oFm@qEwByOsAsJS}AwAmKsF}`@E[E[mEw[iD{VaFq^cByL_@kCgAoIQmAsDiXoAeJgE_[oA_JeAuHaAkHsAuJ}@yG{@_Gw@iGeFa`@oBmNgCeR}AgLyLa}@SyAkCuRKq@cF{^eA_IqAkJcDkVeBeMoCaSuKcx@_CkQkAiHIg@WqBi@uD_AeHi@{DkB_NgCgRqDgXo@kEc@gD]gCi@{D_A{GqBaO}Ly}@_@iCyG{f@kAwIgQaqA_@wCe@mDa@_DM{@MkAYmCSuBU{BQ{BQyBIsAIeACc@?ICYM}BSqEYwG}Aq]_A}S_@yHWkFQwDCk@Ag@KqCScHO}FKsEEwAGyAK}CU_Fa@gJOkDWaGW_FUcEQkCQmCk@gIG{@Ew@C]G{AIiBWmFCm@AKGgAQgEE}@E}@SeF[iHc@kKi@cMc@qK_@{IO}CK{BIwAGeAMyAM}AIo@Gu@a@eDWgB]uB_A{FaAeGkAiHaBoK[yB]yB]qBiBcL}L_v@uEwY}@uFcDkSiIch@eAaHiAiHQqASqAcBoKuAeJgBeLyAsJ_@gCKy@K}@Iu@KcAEm@GaAEs@CeAE_B?g@?m@?{@@}@@{@@]@]Bu@FeAFy@HcAH}@Jy@L{@T{AFYJi@ZsAb@yBhAcFdAsEjBmIr@uCbBuHfA}E`@qB\\kBVyAZwBR_BNqAJaAP_BDo@Da@LaBHuADy@Ds@D{@DiADeABaAB}A@uA@gB?cA?mACsBC}ACcACmACk@MsCGmAKyAMyASiBgEsd@uB}TQmBOcBUiC[wC]}CU{Aa@sCSwAMq@_@yBo@wD_@qBSaAkB_Js@wCo@uCg@uBKc@Kc@kAaFSaAk@_C_AaEe@mBi@eC]sAOw@Oq@s@aDoBiI}@}Ds@iCs@}BmAwDkAaDmAuCkAeCu@uAMW}AsCwAgC}AqCy@}A_@s@OYc@}@]{@k@wAi@}Ae@eBYiAUeAMs@QaAOiAOgAKeAIeAG_AEw@Ci@CaAC{@CyA?aCEkMGaP?yBCcF?eAC{AGgCGyAQ}BKaAMcAOmAg@gDYmBk@gDOo@Ke@c@cB[eA_@eAQk@o@}AkBgEgAcCsA_Dw@cBw@iBe@eAeAcC{AeDe@gAcA{Bq@{As@aBcAeC}@kCs@{By@qCq@mCe@qBaAqEc@oB_AgEm@sCcAqEq@aDoAuFS}@u@yD_B_I_AeFUsAk@iDKs@M{@U_BQwAYcCOuAOaBOoBQ_CQwCMwCKsBIqDCoAAg@A{BA{D?cABeDDuCH_DP}FJyCf@uNPcFLkDj@eOf@{Lh@oMTiFb@_LLcDVaGT}FH{AHoBJcBNuBNyANsAXyB\\sBXwA^aBTaATw@f@eBt@wBh@wA\\aAhEqLJYb@kA`@kAj@_Bf@qAVs@Rq@`@oARu@\\qANo@XsAPy@N{@Ly@ZqBPyAH{@JiAJqAJoADs@DaADuAB{@?a@BuA?}@?y@A{AAy@C_AEqAE_AIwAG{@KsAMwAG{@I{@Gy@MwAI{@KuAMwAWoDMyAMwAMwAOsB[qDsCw]o@aIcA}Lc@eFa@kF_AoLu@cJo@_IcA{LWaDWuC_@oDUcBy@yGaCgReAqIc@gD}@cHsAyK}@cHeBoNG_@WqBQuAo@eFaB}MIo@e@qDiAiJ[kCeAgIk@uE_@uCc@kDSaB[cCc@oDg@yDo@_Fw@uGs@wFq@mF_@{Co@}Eu@mGm@sEGg@g@}D}@gHg@aEc@_EQqBYuDO_CYuEGcAUuDM_COyBE}@KqAKkBOoCAQQkCg@yIm@wJGgAASs@{KUgEaAgPWeEYeFGaAc@eHK_BAOEg@c@oHg@eIk@oJaAsPu@aMcAwPGiAk@qJI}Ao@aKE{@_@{GWgEIqAGqAKcB]yFE_AYoEc@qHYyEa@uGk@kJc@cHYaFGy@s@_MIeA_@{EKoAs@kGOqAUwBQ{AOsAe@cEe@uE]aDg@mESmBSeBYkCSkBUkB]cD_@iDu@aHq@iGa@qDa@yD[sCYcCSmBW}BUuBg@oEc@gE]eDQ{Au@wG[{C]uCo@uFi@{EkEs`@sL{fAY}BWuB[oBm@}C{@aEEOa@_BOq@yBoJw@_DkB{G}@yCcAgDo@yBs@_Co@uBs@{B}@yCgAoDwEwOmHiVw@mCs@{BcAgDMc@w@iCq@yBk@kB]iAOk@k@iB_@mAc@wAg@eB_@mAwAwEiAwD}@yCs@}BUy@w@iC_A}CaA_Dw@iCe@_Bi@eBe@}A[eA]gAa@sA_@sA[cAg@qBQs@k@eC_@cBWyAYaBO_A]uBQgAWwAa@gCc@mC[gBy@gFy@cFs@gE{@iFk@kD}@}Ew@eD_@qAgAgDe@gAgA_Cq@oAu@oAIMU]iBaCaAeAs@u@y@y@c@c@{D{DuIwIuC}CsAkB{CiFcAmCwAsEg@_CeAqFoKik@oGa]mEaVmC{No@_EYaCg@eFe@wFIiAEmAIcDUyRMuIGqEEaDOmEGiAOeBYkCc@qCc@yBa@_Bc@}Ag@aBo@{A]{@g@aAy@}AiAiBkA_BoCmDwCuDuE}FwCuD_EeFq@{@eDeEaDcEc@m@u@_AeC_Da@g@cBwBsCmDwAgBqCkDkAaB_@m@q@qAmA}C]iAk@uBSu@SgAe@uCWmBO}AOyBQoDM}DWoGMaDk@cOUoFSoFM{C[{I_@oHSsCYiDs@aGqA}IM_AaAmGOaAqCiRsAkJuJeo@iB}K{@_Fw@{DkA}EaEuNw@qCmCgJeRcp@sE}OyA_Fa@wAe@aB]iAsAsEWy@q@iBi@yA}@uBqAqCqAcCoAuBaFaIeHcLeEaH_DcFkB}CaA{A_CcEwAgCoBcEgAqCq@iBi@aBwAsEuBuIg@wCo@{D_AuGkBsMmBwM}BwN_BsIqEyTcJ{c@YyAyDaRmAgG]yAc@cBe@cBc@yAa@qA[_AsByFcCqGg@_BkF_OkCyHoUgq@qBgG{@eDw@mEIa@Gg@Kq@E_@Gs@Iy@IkAE_AEs@I{CEcFAy@SqVEmEOoV?e@?m@?EAg@SgZq@}}@MeDIcBOqBOyAIk@o@iDq@oDg@cBkA_DsLsWsCsGsFwLWg@EI[o@uE_KmB}Do@cBkEeMqAkDAEQg@?AyAgEaDiJ{AoEcDqJc@mA}@aCm@aB]aAe@yAmGyQiA{CaCaHo@iBu@{BmDcK_C{GSm@uBgGyBqGqAqDmAcD_AcCmAcD{A{DuAmDoCgHmBeFiB{E_BiEqCmH{FgOqCiHm@}AeCyGyB{F{CeI{FgO_BcEuAqD}Ly[eIcTsDqJsAqDeFwMwByF_BgEk@{AiCyGqFsNy@yB{@_Cg@uAYaAg@aBU{@g@iBm@eCS_Ao@}CUoA]uBe@mCc@kC{@_Fs@gE_AyFwAuI]qBk@iDk@gDQeAw@sEWuA]sBg@wCg@_Da@aC[kBWaBe@mCm@oDc@aCc@kCYcBg@sCUyA]sB[mBUsA]sBe@iCu@qEc@mCy@yEk@gDk@kDk@eDe@mCuBgMc@iCe@qCq@cE}@gFeAqGs@eEk@eD{B}M{@iFgAoGm@qDoD_Tc@oCyAqIs@gEa@kC{@mFi@iDIk@EYmAmIyA}JoCcReDaUkA_I}AwKqA{IkA}HaBaLu@gF{@aGeAcH{CgSw@eFc@yC}AcKi@oDwAgJw@kFc@uCwAoJu@aF[mBuAmI}AmJgAyGeBeKy@eFgCwOWuA[oBc@mC]qB_A{FG]My@aA}F]sB_A}FUuAk@iDq@gEKg@QeAWsAMu@Ow@Oy@Mu@WuAe@kC]qBOw@Ow@]qB}@aF}CoQc@eCoAqHoAwHi@eDE]Kk@mCkPoAqHiAaHeCiOoCoPmAoHi@{C]sBa@iBEWg@{BaCcK_AsDi@oBg@_BuAoE_BcF]gAa@sAe@{AOg@}A{EeCeIUw@Yy@eF_PyD}LmCsIiBaGUu@W{@o@aCc@aBi@yBU_A_AgEYyAc@_Ca@wBy@uEYcBa@qCk@{D{@yF]}BeAyGoBsMcCkPyAuJq@yEmCsQaBqKqAwIc@wCkAwHgBsL{@yFiDmUcCmP_CsOaAuGqAyImBoM_BsKcA}G]wBq@{EiBuLaBwK{G}c@}AoKEQy@eGu@aFaAsGaA{G_AqGU_BMkAIq@MyAKiAM_BOcCGsAImBEwAAkAMaF?eGBcBF_CH}B@i@Bk@ZgFToCp@{Fb@_Dn@uDX{Av@sDrBgJxBgKhDyOZ{An@yDh@wD^aDP}AXaDRaDRaEHcEBeC@cCCaDAcAA_AEaBMgDK{BIgB]kEqBuXwAwRkAgPq@eJ_@cF]sE}Bk[IaA{K}{Ag@yHWeDWeD{AeSaCc\\k@aIk@cI_BgTkBcWuCia@q@gJ}@kL{H{fAGy@K_BM}AO{BcQacCqA}PCWkDgh@{AcSyLudBuFmv@aAeMyAcROkCyAqTsHkfA_MgfBqGmz@qAoQiAmPcBmUEg@cBwUoCk_@uCob@gEen@cPa{BmF{s@iAsNw@aKS{CYsDSqCWkDM_BQsCYmDYwDWiDk@kIYsD[kEO{A]qCIw@My@My@SsA]mBQ{@YuAa@kB[qAo@eCaA{De@mBGU{@gDe@kBo@eCg@mBe@kBe@kB[qASw@e@kBoCuKo@cC[qAUw@c@iBcA_Eo@eC[qA_BmGaC}IwAoF{@aDeA}Dq@cC[qAi@mBy@_DQu@]qAuAqFeA_Ey@aD_@{AqDoNI_@EOy@eDmAaF]uAQu@WqA_@qBSuAYsBOwAIy@G{@Gy@Eo@G_AGuAEgACyACyA?{A@yA@yAD{AFwADy@F}@PwBJwAH{@LyAHw@H_AFy@LwAHy@F{@NwAF{@LwAF{@B_@Fw@H{AFy@FyAD{@@_@Bw@FuDDiEA[AeEEsBE{AIcCMgCQuCOmBO{AQ_BOwAS}AW_B[qBq@mDiAsFe@{BgAoFoBoJ_AuEeA{E{DiRuHg_@Y{ASeAO}@YoB]eCQaBMkA]uDOuBO_CIoBI{BGwDCkCEmFWi[OeOKaOGgGK_NAgBE{DEwDEcCCsAG}BEwAGcAMiCQgDQgDOsCk@kKi@wK]uGcAwRk@wKMyBMkCc@gI]aH]qG]iHg@uJCe@Cc@OuCQ_EQcEMsEMoFMiHKsHQwJOiKSqLOiLMeJOsKIeHM_KOuKI}GQqKK{IMuIOqJIuEQ{KKgIIwFSeOKcIIeFI{FIgFIkFK_FMkHSmNYySOiK_@{WQcMKcGEmDMmIMmHYkOOaIOmICqBGsD?KEsC?KE{DIeFU{NIoGQuL?KGuEGqDGuFQqUImJEwEEsEImGEyBm@}b@?EGiDKoHEuCIsEWcMIoE[eNImEKuEOmHEsCGuBQoI]}Qa@sQSoJOqFYeLMgGE_B[}NWcM_@ySm@{ZKuFEeBCcB_@kR?YWkMCiAm@u^E{BKqCKuC[gHYmH_@cJ[kHe@aLWmGSoEQoE]iIQqEYoHMoDCwA?}@EoEAsEAsCCuEAwBA{A?wBAuC?uDAoE?oGAuFAkGCsECqFCoGAsDCqFCmHEkHEiICoHEeK?WCoHCyEC{CI_DMkEQkFUcGOaFQuE[gJUeGOoEIiCm@gQm@oQsAy_@{@cWM_HGgLG{U?}SCoc@Qoz@A}FEqOAwGC}GAcFAcFAaFAmFA}F?sAAkAGqBIsBQuBKkAMkAYoBIe@SgA}@qDWcAy@gCw@cCe@iBYiA_@mBYqBOkAW{CMsBGsBCkAAoA@mA@kA@{@Dw@JqBDg@NiBFi@^uCZaBVqA^{A|@_DRi@Ne@N_@p@{AlIiQrE}J^u@Ta@pBmEP_@jAcDZcARq@lAqFnAoFtBcJLg@bE{Qp@sCZuAf@uB~Iga@T_Ah@eCt@yCf@yBd@wBR_ALy@XgB`@qCR}AT{BPuBV_DJeBDc@HmA?GNqBRwDVmELwBH{AHuA^kH`@iHXuFPqCPyBXqC\\uC|@cGpA{HtC{OjC}NDWzAuIjBkKv@eEz@uE^qB\\sB~@mFd@oCTqARiAh@wC^yBRyALw@D]D_@F_@Hw@H{@J{@Hy@F_AH}@F}@HwADy@D}@D{@B_AB}@D}@b@oN\\gMZqK^mLBgABgAT{IHuC@yBA{BEkBIqBQ}BEe@IaAUeBOaAGc@SeAYoA]yAOi@Qm@]cAi@yAa@aAk@wAw@gBsCwGuF}Mw@gB}@yBkAsC}AsDEMsByEeD{HgBeEM[Um@Wo@Us@Us@Oe@g@qBIa@Ou@Ie@_@_CmCuQiAwHGc@_@_CCQ]aC_@kCYqBYmBo@kEi@mD[sBg@kDo@gEg@kD{@iF_@kC_@}Bw@uFUwAUuAe@cDs@{EQkAkA_Ii@qDc@wCe@}C_@gCg@kDQmAc@sCa@qCIe@Im@U{ASqAQiAKy@a@kC]{BmAqI[qB{@uFy@{FoAmISuAUyAMy@My@Ow@Ow@Ou@Ou@Os@Qu@Qs@Qq@Su@Ss@Sq@Uu@Wu@_@mAeA{C}@aCYu@c@mAe@oAWs@Ys@Ws@i@wA]_Ae@kAWs@Wq@Wq@Wq@Wq@c@kA_@aA]}@c@kAc@iAYs@uAqDo@cBo@aB}@_Co@cBEKi@wAy@}B}@}Bc@iAWo@Yo@Yo@[m@[k@]k@]g@o@_A_@e@_@e@a@c@a@c@c@a@c@a@c@]e@_@e@]c@YmAs@mAu@oBgAaAm@mAu@y@g@{@g@y@m@w@m@a@_@e@c@]]UW[]W[]e@a@g@_@k@k@}@m@cAi@gAYk@[s@O_@Sg@Oa@So@w@qBc@kAe@oAsAsD{BkGiB_FgEiL{AsEeAsCIWM_@{CmI}@cC_CkGqAsDyFwOEMgIwTaBuEcCuGmA}CeAqCeAsC_@iAa@mA]kA]oA[oAc@iBc@qBe@cCi@gDa@sCUiBQ_BQiBo@sG{Fwm@eA}KuAsOcBoQiBiRaCyVwAsNc@gEc@sEYeDQsBMqBOwBMsBKwBMqCs@oQ}@uU[kIU{FYcISoGKwCMiDGiBe@iN_@_Kg@gNs@gT[wI]gJg@qLMuCGgB[kG[wHk@{NkAqZk@mNIuBEwBKoEQqMGqDGsDGkEGmFEuDGoCEwBEwAG{AEuAGyAWkFk@wLUkEi@{JQoDg@{Ki@wKa@cIYiFQoDUiEYiFMqCMuBOqDIuBUmFSkEOqDYiGYiGWkFSqDa@aIg@_J_@eHc@_J_AkRk@yKa@eIOoDMqD[aKOkFIuDi@mSk@{SCs@Cs@SeHOoEEwAE{@IuASsCMwAIw@SiBQ}ASsAa@oCc@iCG[_@mBk@eCYqAm@gCm@eCiAwEcBeHw@aDiAuEeBgHiCsKwB{IeBgHeBgHk@gCWuAk@oE_@kCQsAOwA]kDUoCk@aHwAgQmBuUgBwTkAsNg@gGo@eIw@{J_@oE]iEQsBYoDUsCUqCa@gFu@}IiAkNEo@SaCQwBKwAkBeUM}Ae@wFUwC[oDYmDOsBGs@IeAKuAI_AEy@IuAE_AGsAC_ACu@Ac@CsAAe@AwA?y@?{@?{@?mABgB@c@@u@B}@DqAF}ABy@D{@F}@Bg@@OF{@J{APuBPeBHy@Hm@BSL}@F]LaAHe@DWJe@n@gD\\mBToALw@L{@Ly@PyAPqBB_@BYDy@HwB@w@BaA@wB@{A@sCHuODkHDaJFaLDcE?oD?_A?}@CyAAy@C{@Cy@Ey@E_AKuAIcAEe@KeAGc@Io@Ec@QkAUsAUuA_@qBaAgFkJgh@eN_v@eBmJu@aEg@kC_@iBg@kCa@mBs@cDYqAi@gCgA{Eu@_D]sAkAuESs@e@iBq@cCe@cBk@oBs@eC}AgF}AgFUu@sB{GuAqEsAqE}AeFqAqE_BmFeGgSiBcGg@aBy@kC{BwHiBeG}AgFsB}G_CyHs@_Ca@uAsHuV[gAgD}K}BwH_A{Cq@{BiAwDiBaGuAsE}AgFgAuDu@aCgImXeDaLiTat@qAqEg@iBi@qBi@_Cc@mBa@kBYsAYqAWsAg@kC]mBO}@i@gDYsBQqAYsB[mCi@_FU{B[kDc@}FMeCOwCKcBIiBKeDG_CEwAGsDCwBCsC?wC?oD@wBBsD@y@DyBFqCFsDTeKr@w]T}Jj@eYDwBDuB?wA?}@?iAAiBAyACsAK{CGwAKwBQeCSeCSwBAKSeBYwBi@{D_@qCg@oD_AyGg@mDs@_Fe@mDy@}Fy@wF]aCe@cDgF{^E]EUE]CUKs@y@cGq@{Eg@mD}@qGsB_OcAeH?Gm@qDg@cDs@gF_@kCc@qC_@oBa@mB_@sAe@cBa@sA_@gA[y@Yw@Yo@Yo@m@mAe@}@iEqH{BuDcCcEcCuEgAiBiAkBiAkBwAaCyAcC{@uAgAkByAeCwAaCuAaCiB{Cy@uAgAiBy@wA{@wAy@wAwAeC[m@e@cAc@{@_@{@c@cAc@iAc@iAa@iA_@kAa@oASs@]mAUy@YmA[qAa@oBi@kC[kBg@kCm@eDKm@Km@Mo@WwA]kB]kBWsAWuAa@iBUaA[gAMc@Og@Us@a@iAq@}Ae@eA[q@g@aA]k@_@m@wBiD{A_C{@oAm@_Am@}@}@uA{@qA{@sA{A_CkBsCiBqC}@sAi@aA{A}BiAgB}AaCyA{Bm@_A}@sAkAiB}@uA{@sAm@_A{@qA}@uAm@}@y@oAq@eA_AoAq@{@s@{@eAgAq@q@u@q@y@o@u@k@q@k@w@i@g@_@w@k@w@o@u@m@c@a@s@o@u@u@u@w@q@s@_@e@cAmAo@y@o@}@m@}@m@}@[i@QW[i@i@aA]o@[m@[m@Yo@Yk@Yo@q@}Aq@eBo@_B_A}Bq@aBgAqCc@iAcBeE_BaEiAuCkAsCUm@o@{AcAcC_AuBw@}AMU[m@i@aAMUMU]i@]k@kAeBw@eAyBqCiDyDwCgDeCsCqAyAuA_BsA}A_AgAc@e@u@u@a@a@QOw@o@w@m@iAs@{@c@UMc@SsAg@k@SQG}@UgB_@}D}@yHgBcH_BOEkDw@eFkAyFqA{D_A{D}@mA[uEgAuLwCsA[y@Si@Mk@O}@WSESGe@Oi@SgBq@e@S}@a@_Ae@e@Uq@_@o@a@[QgAu@eAw@}AkA_EyCmG}EgDgCmCqBoCuBmDmCqCsBgDgC}EqDwCyB{AkAyAiAkA{@{AiAkA}@YUkCoBoFcEoB{AwAgAWS{AkAKI_Au@kCqBaAu@cCmBeCkB_DcCyI{GaAs@_BmAiBuAi@a@aCiBmByAsAeAo@i@MKmBcBsCeCqCeCQQu@o@kBcBiBaBaDuCsCgC{BqByAqAu@q@iAcAa@_@w@q@yAsAkAiAaA_AkCoCuA{AgCsCuBcCaGwGoGiHqGiHkCyCq@u@uA{AeBqBaAgAeAkAiAsAo@q@_AeAwRsTcDyD]]eAkAqAyA{AcBiF_GSUkFeGgCoCkFgFoCsCw@w@wAuAyBkBuAuAwCyCoEsEy@y@gBiBs@u@mAoA_A}@u@w@a@c@kAmAqBqBwAwAo@q@UWOOgAgAyB{BsBuBW[YYUYQUW[MSIM]i@_@q@Yk@Yo@a@gAWu@Su@IYSw@G]GWG[OaAa@cD]sC_@qCo@eFiA}IaA}H]qCYuBqDyYs@sFi@kEUgBKs@uAeLWsBEa@I{@IeAEk@Ew@KgCEiACsCAyA@uBB{ADuANqCNwBPuBZoDp@eHrAsN~@}JHcAF{@F{@FcAFeBBcB?eA?q@CsACaAI{AIgAG_AKaASwAO_AMu@YuAQu@]oAe@{AsAaEqJmYwLk^{@eCs@oBaAiCg@mAs@_ByA_Dy@}A{@wAy@sA]i@q@aAo@}@o@{@q@s@c@c@c@a@y@o@y@i@w@a@]O[Kk@Qe@MaAQaAKy@Em@Ay@@q@BuCHaELcELqUx@sCJqIVsELmBBsA?yACaAE{@GuAKuAQmAQgASsAYiBa@sAa@qAa@uAi@mAg@{@_@iCsAmAs@s@c@k@a@aAq@m@e@y@q@s@m@u@s@iAeAcBkBeAmAoAaB_AuAe@u@e@u@sBqDqC_Fy@{A_D{FmHwM}N{W}K_SuF}JyDaHcB}CyAeC{@uAm@{@_AsAq@{@a@g@qA{AwA{AeAeAoBeBw@o@wAgA}@k@mBiAyBmAg@UoAk@{@_@iLkEyIgDiNkFyBy@s@Yq@YyB}@k@Ya@SmAs@YSYQ}@q@iA}@u@q@gAgAuBcCq@y@oEyFs@aAo@}@k@_Am@gAu@yAaAuBe@gAg@sA}AcEy@}BgAwCcGaPiBaFaAeCcJwVsD{JuC}H}@cCgB{E{@sBoAmCsAiCiAqBq@gAoAmBEEAAQSa@c@e@k@oAsBcBgCkAiBk@w@[c@kKePIMe@q@S[e@u@Wc@{BmDaDqEQYQWkAeBeA_B{@qAQYq@gAcD_F_B_CyBaDe@o@_AsAoAmBWa@Yc@u@kAuB_DoAqB_@k@a@i@oBaDiDqFuB_DOQaBaC_G}Iu@oAwHiLw@gAEGi@s@mBwCcA}AoAuBgBiCaBeCsAmBs@iAyAcC}BeEgAuBgAuBuAmCsFuKoAaCmBwDeIyOsEaJqIkPsCuF_@u@}CaGcDmGyAwCs@sAgAqBuAoCmBsDaAiBsAgCuAkCuAoCwAoCsAkCgB_DWa@q@gAyAuB_@g@}@iAeAqAi@m@i@i@s@u@wAsAkB_B}AsAiAaAmBaBwDcDkBaBs@o@{A{AsAyAcC{C}A{BqAqBgBqCm@cAwA{BgCcEaA{AqBcDoAoBwAaC{AaCkAiB{AcCq@eA[i@MS{BoD{EuHMSm@aAQU]k@{@sAm@aAk@}@mAmBu@mAq@eAeIsMoD}EcN{PwGkIsAcBmDmEmA{As@}@mA}AcAoA_AmAq@}@Y]mBeCoAaBu@aAw@eAiAuAqAcB}@gAo@w@kMcPiCaD_c@si@kL}NmBaCqCkDuCqDsAaBeEkFkEqFaBsBy@eAy_@af@iCaDsCqDgHaJaFiGeAsA_LqN{CyDcBwBcBwB_AkAgFsG_AkAgLyNgEmFeJgLuAgBoA}AoA}AaAoAaAkAsDwEgJmLq@{@oJuLgCcDgAuAqA}Aa@k@o@w@q@y@q@{@m@w@sAcBq@{@q@y@_@g@q@y@o@{@s@}@[c@SW[c@OU_@i@[g@i@}@Q[k@aA[m@i@cA]q@Yk@Ym@g@kAWo@e@mAWq@Um@Yw@Us@Sm@Ww@]mAUw@I]YgA]wAYmAWqAYyA]kBa@mC]uBYoB[sBc@oC[mBSwAMu@U{AYkBUyA[kBU{AKu@UyASqAUyA[mBSuA[qBc@oC[sBa@mC[oB[sB[sBWsAUoAQy@YqA[uASw@YkAi@iB_@oAQg@Mc@c@oAc@kA[y@Yu@Se@Yo@c@eA[o@]q@[m@[m@[m@i@_Ak@aAaBoCgKaQo@eAoEuHaJiOiGiKgB{CmDaGwBoDcCeEyAeCwBoDk@cAk@aAgByCsBgDqBgDoEqHU_@EGYg@{AeCgKoQqDgGeFsIsZch@sMuTuBoD}CkFqJaP]o@gTm^QYQYm@eA[q@cBwCiD}FEGmCqEiAiBuA}Bs@oAwDoGeCgEiDuFgAaBmBoCmB{BwA}AiBiBqC_Cu@m@s@g@_Ao@}@k@aAi@y@c@[OkEwBaCkAkCoAs@[aBy@wBeA{E_CiCoAuBeAoAm@aCkAsCsAkB{@_Ae@sAq@}@e@_Ag@}@i@{@m@cBmAoAcAe@a@g@c@{@w@y@u@g@g@w@{@w@}@mA{Aw@eAo@}@g@y@k@_AeA}AaAqBkAuBw@yAaByCwAkCeCuEsByDiBgDqBsDqAaC{AqCiC}EoBqDaIyNcKkR{Pq[sOoYwMoVkDsGuEuI{Yyi@kDqGaG{KoCcF{GgM}LeUm@kAIOk@cAaB_DiAsBcAmB_@m@gBmDsD_HoBqDuByDaAiBm@gAqAcCm@iAc@y@iAyBgBeDmCcFcB}CsAeCq@oAq@qAmAyBg@_AsAaCcCsEwDeHq@oAq@mAo@oAqBuDsBwDqA_CoA_C_DaGqBsDaB}CU_@kAaCsB}DqAcCqBuDqCkFwFeKsFeK_DaGmCcF{EcJ_CmEaD_GaDaGaJwPcCuEgCwEiDoGQYgCyEcAmBs@sAoVqd@uB}Dq@qAq@oAq@qAgCwEuAgCs@qAcIgO}BiE{FmK_@q@_@q@_@s@s@sA_@s@i@cACEeE{HaFiJSc@oF_KgAwBw@_Bu@}AM[mBmE]{@o@wAy@sBq@_B}@wBQa@m@wA}@wBo@}Ac@gAw@mB_@{@gAkCaAaCaA_CeBgEiAqCmAuCwh@ipAc@gA?Aw@kBcSif@_`A}}BgDeIaC_G_CyFeBeEwAoDoA}DiA}DcZajAUy@oQwq@mKea@gRcm@aOyc@uFkQsJcZcG{RgHuTySgq@qHgVsJm[oG_Ts@}BqGkSsR_n@oNqd@gEkN{Ku\\qBgGwG_S_EsLy@gC}AqEwCwIsA_EsAaEwCwIeFkOoF}OgEkMwBgHqGgTkKc^qGuTgA{DoFoQ_A}C}F_SqByGeCoIcCmIcH{UkI_YmDwLuHsVoLga@mEuOwAcFsBcHuDeMaCiI_Ke]eB{Fu@qCcAaDoH}Vc@sAo@eBYq@Wg@]q@_@q@]q@w@oASYY_@q@{@k@q@y@y@eAaASQMK[UWQc@[YQ]Qc@Wa@QaAc@_@O]MsA][I}A[}Ew@}`@iGaAQc@Ia@Ia@IYGiA]e@O[MqAk@{@c@c@Y{@k@_@WWS_A{@c@c@]]c@e@[e@u@aAi@w@Ye@S]_@q@i@kAc@aAYu@[_AWy@Y{@sAmEmBmGuMyc@eCkImPuj@IWa^ulAsDcM_DmKuBcHoAcEsDeMs@eCy@gCu@iCm@qBs@cCi@iBi@gBy@sCk@iBs@aCyA_Fe@_Bu@iCoFuQmBsGoBwGqAmEaCcI_C_IuA{EaA_DuBiHeAiDuAwEeBuFmA}DcAeDqAiE_C{HcAoDs@gCaBuF}@}CgA{Dy@{C}AoFq@}BK_@Ss@{CcK_BqFM_@]qAgAoDm@wBcAgDoAeEe@_Bo@sBmAgEwAaFy@uCmAiEiAuDgAuDiAaEqAoEcAiDkBqGkAyD{@yCgAqDiAyD]iA]iAu@eC{ByHiHiViBiGuA}EqByG_BmFgBcGkBkGeFeQiC{I{BuH{CcKiCuI{AcF{AaFgB{Fq@}BcByFsBwGmBwGoDwLaGcSeFaQyAaFeH_V_EeNs@cC{GgUgAqDcCkIyAaFqCoJiBqGaBoGqGuWwA}F{@aDwEiRU{@Mk@mCuK{DuOiCeK{AeGoBkIkLod@mDgOyEmRyFsToKsb@?AaC{Jw@_Dq@kCmCsK_DiM{FcVm@oCMs@Mo@WwAw@aFa@sCg@oD}AwKgFs^qBgNm@gEy@eGaAgHoAeJ{AmKgAuHOqAS_BOaBOqAQmBMkBKcBIoBGsBEqB?mA@oA@uBDgCFwBFaBBe@HoAFcAHcALqAP{ANqA^sCRqANy@Hg@VmA^aBVeAj@qBz@wCnIqYzEaPpJc\\|B{H^sAbEcN|A{FBEFYrG_UzCiL|@}Ct@oC`AaEt@_Dr@iDp@gDn@gDj@iDv@gFl@iEh@mE^oDXsCZqD\\kERwCLqBFqAHwANaEJuCJsENoGRiJ^mOPcINyFN}GTuJZ}MVuKb@sQPiIHsDBcB@aA?mAAwCCwBOkJMgKG_DAsACuAKeGOmJMmHKmGMuHKiGAqAKyFKcGEcCKoHMkIKqHG{CCoAImFEaBGyAU_FAUG}@g@kFa@sDWqBKo@SsAOy@WuAOw@WsAe@qBm@eCYeAw@kCeAkDu@gC_BgFyAaFyA{E{BqHqAiEmAaEsAmEeB{FoAgEs@cCmFgQ}BuHiAyDi@oB[qAa@oBWuAMy@Kq@U}AOwAOyAKwAG{@G}@GyAE{ACwACaB?EGmFEiEYk\\S}SAw@IgFO_NEiEWeYk@im@SwNM_QEkBKiBMkBY{C{AkOkAuL}@aJq@qGKkAMkAu@yHkAmL?AkAaLqAsM[yCOkAMcAk@uCg@}Bs@kCi@gB_BgFsFuQmGySsCkJqMob@s@}BoCiJiBwFqLm`@qAeEeQ_l@aHgUcFuPmA}DgB_GcAgDa@sAgAmDq@yBe@yAQe@uGuSoAeEaAcDu@cC]eAiAwDk@iBq@mBWq@a@gAg@oAcAiCu@gB_F{LkAwCqA}CyAuDoJ{UkCqG_C_GoB_FqHaR_C{FsCgHuCiH}B{F}ByFoB}E_C}FoB_FwAoDiAsC}BwFa@gAw@wB}@{B{BwFkAsCiAsCwAmD}@{BuAmD}CcIsAoDy@_CyJiXyJkXKYqAmD{AgEuB}F_BmE{AiE_BkEeAuCeAuCo@eBcAuC}@cCa@iAy@}BgAyCeAuC{@_Cy@{By@_C{@_CeKeYWs@eB_FiBcFqD}J_CuGiBaFaCwGgAwCoAmDiBeFwIgV_BqEaC{GqAqDcFgNIW_AiCISoCqHiGyPgHwRm@aBo@eBo@cBc@kAe@gAYq@g@gAYm@{@cBcAiB}@wAk@aA]g@_@i@[e@a@i@q@}@_@c@q@{@s@{@eD{DsLoNcBoBaAkAaAkAaAmAs@{@o@{@o@{@o@_Ag@w@c@u@e@u@w@wAaAkBu@}Aw@kBcAkCYw@s@qBc@wAu@cCIUsQsl@iAsDq@}Bc@sAs@cCW{@}@{Cq@_C{@uCmBsG_BsF_@qAw@mC_CgIgDiL_A_DsAwEiAwD_BwFo@wBiAyDu@cCs@eCk@mBs@cCe@}Ac@yAq@aCk@mBu@eC]oAm@wBm@qB_@kAW_A}@}C_@qAk@iB]oA{@uC_AcDs@cCgBgGsCwJqAoE}BaIsAuEqAoEkLw`@wAaFsBeHqAsE}AoFsAsE{AoFiBiGqAuEsAuEgBiGwEiPgC}IoDeMgBiGs@eC_BcG}@gDcBoGaG{TwBeIuBaImFgS_DmLwBeIq@eCg@iBWw@Uo@Qc@Sc@Ym@Sa@Uc@Wa@U]U[Y_@]c@c@e@e@c@a@]USYQ[Ue@Y{Ay@gB_A}C_BkCuAqAq@KESMeB}@aB}@oAq@e@[e@]c@]e@a@q@w@QUQU]e@MSIKa@u@]o@Q_@Ug@Qa@Si@gAsC}@_Cy@wBoFqNkCaH}DiKcCsGaBiEsAmDM[cCqGy@wBeBoEkBaF_BeEsCmH_CgGqBmFeCsG_BcEACiAwCc@kAWq@eCsGqCkHcCsGiAsCiCoGWk@[q@e@cA</points>\n    </polyline>\n    <duration>\n     <value>13868</value>\n     <text>3 hours 51 mins</text>\n    </duration>\n    <html_instructions>Merge onto &lt;b&gt;ON-401 E&lt;/b&gt;</html_instructions>\n    <distance>\n     <value>427641</value>\n     <text>428 km</text>\n    </distance>\n    <maneuver>merge</maneuver>\n   </step>\n   <step>\n    <travel_mode>DRIVING</travel_mode>\n    <start_location>\n     <lat>45.2083667</lat>\n     <lng>-74.3482841</lng>\n    </start_location>\n    <end_location>\n     <lat>45.4623177</lat>\n     <lng>-73.6095157</lng>\n    </end_location>\n    <polyline>\n     <points>iw|rGvcxdMqC_GqAoCe@aA{AeDACsAqCmDoHwGmNcHcOcEsIu@aB_AqBaBkDwBsEsBkEUe@iB{DoAgCk@mAs@sAw@_BqAkC_AgB{@kBO_@O_@Wo@a@oAM_@I[IWK_@EQU{@WoAWwAa@{BUsA_@}BcGu^k@gDyAoIaGg]aBoJY}Ak@yCa@sB_@cBc@gB_@sA_@qAg@eBk@cBOg@Sg@e@mAy@qBo@}Aq@_Be@kA{@qB]y@mAwCg@kAmAyCaP_`@}@sBs@eBo@}Aq@_B{@uByAmDyDeJ]}@aBgEyCaIaFsMkCeHkCcHiDcJw@qBkCcHwB{FoCcHeBwEuCyHcCoGaCqG}AaEe@mAiCcHmCiHeDoIcA_CmAsCeK}SaC}E}B{EqCuFwBoEKWaAwBUe@uAaDcAgC}@aCk@}AeA}Cu@{Bs@}BYw@sN{c@c^yhAc@sA}@qCqA_EcAcDyB}Gu@_Ci@aBc@kAw@oBSe@Uk@y@gBcBeDi@aAs@mA_@o@e@w@e@s@a@k@]e@a@i@aAmAa@i@cC_De@m@MOiIwJ_d@sj@kAwA_O_RQUsNiQ[a@}BsCup@uy@sDqEuC}DY[W]sCmDkBcCc@m@kBkCiC{Dk@{@uAuBcA}AoEaHyBeDiBuCs@eAw@mAgBqCiDoFy@oAu@qAk@cAk@cA}@iB{@kBcAeCg@qAsEwMgJqXuIeW_B{E}AuEqGiRoDsKw@kC]eAm@oBqAeEgB{FiAsDcL{^{Sqq@}E_PyLi`@Mc@{A}EuMwb@iAmDm@sBaAyCiB_GiGiS}DiMaDiKgB}FwBcHeBwFyBeHMa@a@oA}Qam@iEgNu@eCuAqEoDiL_BkFUs@GQoQ{k@_AwCoBoGqPwi@sG}S}C}Ja@iA_BaFmA{DaAsCKYsDqLuAsEkDcLoEyN_BgFy@iCs@mBu@mB_AaCcA_CqAoC{AwCu@wAi@aAaA_BgDiFgBmCw@iAsB{CwH}KaDwE}BiDqAoBOSoAkBmAmB[e@k@}@oAsBS]gAgBiCgEmAsB{AeCkDyFuBoDqBeDWc@EEMUc@s@w@qAaG{JmEkHaBmCsAuBs@cAa@m@{@aAMMg@g@q@o@aAy@_DgC}AoAkCwB][IIYYuAuA}BgDu@oAcAsB_A{Bm@_BcBmEmFyNm@{A{B{F_@aA_A{BeDqIu@qBkAyCa@iAcAmCk@}A}AwDgAeCWo@a@}@i@mAi@kAWm@e@gA[y@o@yAeAiCcAiCgAqCa@}AQ}@QoAG}@G}AEmC[kSGgEMiHE_BCaDa@iUAm@Am@EgDIkEQuEIgBIqAMeBQkCc@_Fi@yFmAoMUqBKy@OyAIi@Ku@SuAGWWgB]qBg@mCc@sBYkAo@qCwAsF{BcJyHwZgAoEi@uBi@sBG[uAsF[mAW{@W_AWq@IUq@}Ag@gAk@eAMWw@qAEGg@u@Yc@[_@g@k@]e@}AsAu@o@}E_E}AoAgA{@y@m@eAy@_BmAeBwAqAiAwBqB}AsAkAaAIKi@c@ECQOgLoJGECCMK[YCAKKe@]g@e@w@u@[_@c@g@QWQWq@cAk@eAg@eAQa@g@kAa@gA[}@W}@Og@U_AS{@QaAUsASqA_AiHa@sCQiACSIk@OaAQsASsAUuAQaASaAS{@cAsDc@oA_@kAa@kAa@oA_@mA_@qAe@eBw@yCiAuEuAsFiAmEq@oCq@kCk@{Bi@yBa@eBU{@yAmGw@aDq@mCaA{DuDyNm@{BwAsFiAiEYaACKYgAcAiDiAiEwAqFiC_KYeAYeAkF{S{@oDmA_Fo@iCoBsH}AgGuAmF{@gDgAkEi@{Bs@gD_@iBe@}Ba@aCg@sC[mBm@aEWoB[cCUkB]yC[}CWyCSoBUeCSsBEg@O{AGg@[yC]sD_@kEg@yFmAiNYeD_AyKYaDc@}ESiC]mE]wE]cE[qDaAiLs@iIo@cHeA}L_AsKa@iEi@kGc@eFMuAg@wFEg@IwAMuA_@cDq@sFy@cGu@oEaAkF_AmF}AuIo@iDsEqWG_@Ie@ACIa@kAwGoDqSiBcKOy@uEyVqA_HiAoGa@{Bi@wCiCoNm@}DmAeI_CyOaAcHm@_FYaCgAaKsC}Va@gD_AgIaAuG_@sBKm@g@aCq@wCWcAe@cBq@}B_A{CcBsFwAqE_DaKiAoDs@_CYiAgAeEEO[}Am@{C[mBYgBg@kD_@}CU}B_@aFWcE[yFKaCGsAOgEEoAMqFCoAAaBAgDAmA@uGHaN?]DgF@uA?OF}IL}SRoa@h@sbAFqNBsB@iD?uBDiDH{CJ{CRyCDo@BWDg@t@wHd@_EdA}Jf@{EN}APwAFw@HaABs@Bq@By@?_@?{@?u@Ak@C{@Co@IeAEs@Gi@?GAEGa@Im@Ks@e@uCQeAe@wCa@cCMq@UyAMw@QsAKcAOcBEs@Es@Ae@A]?U?s@@mA@qC@wCBkDFgE@iH@_BD{FDiG@uC@{@@yAHcQ@}@?C@_ADeLDqI@kFB_CBaFHyODaJTe]H{NDyFBgHBoEBkE?kAF}KBkD?Q@Y?A?i@?C@a@@kB?}CHsEJoET_JFmBFaDFgCDeCHcLDiCDsFBmEDyHFoKF_I@mAB_F@gC@gADy@DgAHgALuAHs@Ly@Jy@TqAH_@VkARq@V}@z@sCd@{AbBoFj@gBH]l@qBb@cB\\{AlAyFvEcU\\iBHg@TyANeAXsBRgBHeAHoAFiC@q@h@qQBoA?g@?W?kAAy@Cs@Cm@Ca@AIUsBO_AOy@[uASs@Oc@EMIQOc@CGGOCESg@aAcCkCsGOk@kAqCuAiDaA}BqAyCeBuD}DwIyAcD{@gBc@aAgAcCs@_B}AyDi@wAg@wAi@yAm@cB_@uAc@mAcC{G_BsEsAyDuB_GyAiEo@cBmD_KmAkDqAmDu@oBQ]Q]gAiCuAuCaAsBiB_EyByEyB{EaFwKaE{IuBuEaHuN</points>\n    </polyline>\n    <duration>\n     <value>2708</value>\n     <text>45 mins</text>\n    </duration>\n    <html_instructions>Continue onto &lt;b&gt;Autoroute du Souvenir&lt;/b&gt;/&lt;b&gt;Autoroute 20&lt;/b&gt;&lt;div style=&quot;font-size:0.9em&quot;&gt;Entering Qu?bec&lt;/div&gt;</html_instructions>\n    <distance>\n     <value>67287</value>\n     <text>67.3 km</text>\n    </distance>\n   </step>\n   <step>\n    <travel_mode>DRIVING</travel_mode>\n    <start_location>\n     <lat>45.4623177</lat>\n     <lng>-73.6095157</lng>\n    </start_location>\n    <end_location>\n     <lat>45.4635675</lat>\n     <lng>-73.6072328</lng>\n    </end_location>\n    <polyline>\n     <points>ojntGnzg`MaAsByBeF}@oB</points>\n    </polyline>\n    <duration>\n     <value>10</value>\n     <text>1 min</text>\n    </duration>\n    <html_instructions>Keep &lt;b&gt;left&lt;/b&gt; to continue on &lt;b&gt;Autoroute 720 E&lt;/b&gt;</html_instructions>\n    <distance>\n     <value>226</value>\n     <text>0.2 km</text>\n    </distance>\n    <maneuver>keep-left</maneuver>\n   </step>\n   <step>\n    <travel_mode>DRIVING</travel_mode>\n    <start_location>\n     <lat>45.4635675</lat>\n     <lng>-73.6072328</lng>\n    </start_location>\n    <end_location>\n     <lat>45.4910209</lat>\n     <lng>-73.5747258</lng>\n    </end_location>\n    <polyline>\n     <points>irntGdlg`MsD_ImBcEgA}BKSsAuCeCwFYi@]o@cAcBs@gAOUcAsAo@w@m@u@i@i@KKu@u@m@g@yAqAo@e@a@UUOyE}Bk@S?AsAg@o@Ua@MeA[_@Mw@WME_@OEAUIQG}Ag@}CaAs@WuBs@y@Wy@Ye@OWI]MWKk@W?Ag@Uu@c@q@g@w@o@o@k@o@s@q@w@m@{@a@q@}@}AUa@aA{Ac@u@]k@yDoHiBgDwO}YGMIMcAoBe@}@o@mAsByD_B}COYIOGKS]aBwCq@mAq@iAaA_Bm@aAoAkBmBuC_@g@]e@sAiBiGqI</points>\n    </polyline>\n    <duration>\n     <value>179</value>\n     <text>3 mins</text>\n    </duration>\n    <html_instructions>Keep &lt;b&gt;right&lt;/b&gt; to stay on &lt;b&gt;Autoroute 720 E&lt;/b&gt;</html_instructions>\n    <distance>\n     <value>4059</value>\n     <text>4.1 km</text>\n    </distance>\n    <maneuver>keep-right</maneuver>\n   </step>\n   <step>\n    <travel_mode>DRIVING</travel_mode>\n    <start_location>\n     <lat>45.4910209</lat>\n     <lng>-73.5747258</lng>\n    </start_location>\n    <end_location>\n     <lat>45.4958323</lat>\n     <lng>-73.5669047</lng>\n    </end_location>\n    <polyline>\n     <points>{}stG`aa`MA[A??AMY_AwAiEgGa@s@}@aBs@yAWo@_@sA[qAGUs@sBUu@YeAcBcHK]IMUUSOIEMIUE[@QAO?KCGACAECGEIEEEKO</points>\n    </polyline>\n    <duration>\n     <value>69</value>\n     <text>1 min</text>\n    </duration>\n    <html_instructions>Take exit &lt;b&gt;4&lt;/b&gt; toward &lt;b&gt;Rue de la Montagne N&lt;/b&gt;/&lt;b&gt;Rue Saint-Jacques&lt;/b&gt;</html_instructions>\n    <distance>\n     <value>844</value>\n     <text>0.8 km</text>\n    </distance>\n    <maneuver>ramp-right</maneuver>\n   </step>\n   <step>\n    <travel_mode>DRIVING</travel_mode>\n    <start_location>\n     <lat>45.4958323</lat>\n     <lng>-73.5669047</lng>\n    </start_location>\n    <end_location>\n     <lat>45.4961802</lat>\n     <lng>-73.5675859</lng>\n    </end_location>\n    <polyline>\n     <points>}{ttGbp_`Ms@`BQf@</points>\n    </polyline>\n    <duration>\n     <value>12</value>\n     <text>1 min</text>\n    </duration>\n    <html_instructions>Turn &lt;b&gt;left&lt;/b&gt; onto &lt;b&gt;Rue Jean d'Estr?es&lt;/b&gt;</html_instructions>\n    <distance>\n     <value>66</value>\n     <text>66 m</text>\n    </distance>\n    <maneuver>turn-left</maneuver>\n   </step>\n   <step>\n    <travel_mode>DRIVING</travel_mode>\n    <start_location>\n     <lat>45.4961802</lat>\n     <lng>-73.5675859</lng>\n    </start_location>\n    <end_location>\n     <lat>45.4982235</lat>\n     <lng>-73.5651801</lng>\n    </end_location>\n    <polyline>\n     <points>c~ttGlt_`M_AoAaAoAKKYQgB_CgAwA_AkA</points>\n    </polyline>\n    <duration>\n     <value>72</value>\n     <text>1 min</text>\n    </duration>\n    <html_instructions>Turn &lt;b&gt;right&lt;/b&gt; onto &lt;b&gt;Rue Saint Antoine O&lt;/b&gt;</html_instructions>\n    <distance>\n     <value>295</value>\n     <text>0.3 km</text>\n    </distance>\n    <maneuver>turn-right</maneuver>\n   </step>\n   <step>\n    <travel_mode>DRIVING</travel_mode>\n    <start_location>\n     <lat>45.4982235</lat>\n     <lng>-73.5651801</lng>\n    </start_location>\n    <end_location>\n     <lat>45.5000690</lat>\n     <lng>-73.5689619</lng>\n    </end_location>\n    <polyline>\n     <points>{jutGje_`MIPM^_B~DUj@GRmB~E}A`EO^</points>\n    </polyline>\n    <duration>\n     <value>94</value>\n     <text>2 mins</text>\n    </duration>\n    <html_instructions>Turn &lt;b&gt;left&lt;/b&gt; onto &lt;b&gt;Rue Mansfield&lt;/b&gt;</html_instructions>\n    <distance>\n     <value>359</value>\n     <text>0.4 km</text>\n    </distance>\n    <maneuver>turn-left</maneuver>\n   </step>\n   <step>\n    <travel_mode>DRIVING</travel_mode>\n    <start_location>\n     <lat>45.5000690</lat>\n     <lng>-73.5689619</lng>\n    </start_location>\n    <end_location>\n     <lat>45.5018118</lat>\n     <lng>-73.5673445</lng>\n    </end_location>\n    <polyline>\n     <points>mvutG~|_`MuBoBiAaA{CqC</points>\n    </polyline>\n    <duration>\n     <value>57</value>\n     <text>1 min</text>\n    </duration>\n    <html_instructions>Turn &lt;b&gt;right&lt;/b&gt; onto &lt;b&gt;Boulevard Ren?-L?vesque O&lt;/b&gt;</html_instructions>\n    <distance>\n     <value>231</value>\n     <text>0.2 km</text>\n    </distance>\n    <maneuver>turn-right</maneuver>\n   </step>\n   <step>\n    <travel_mode>DRIVING</travel_mode>\n    <start_location>\n     <lat>45.5018118</lat>\n     <lng>-73.5673445</lng>\n    </start_location>\n    <end_location>\n     <lat>45.5017123</lat>\n     <lng>-73.5672184</lng>\n    </end_location>\n    <polyline>\n     <points>iavtGzr_`MRW</points>\n    </polyline>\n    <duration>\n     <value>12</value>\n     <text>1 min</text>\n    </duration>\n    <html_instructions>Turn &lt;b&gt;right&lt;/b&gt; onto &lt;b&gt;Boulevard Robert-Bourassa&lt;/b&gt;</html_instructions>\n    <distance>\n     <value>15</value>\n     <text>15 m</text>\n    </distance>\n    <maneuver>turn-right</maneuver>\n   </step>\n   <duration>\n    <value>18990</value>\n    <text>5 hours 17 mins</text>\n   </duration>\n   <distance>\n    <value>540965</value>\n    <text>541 km</text>\n   </distance>\n   <start_location>\n    <lat>43.6533103</lat>\n    <lng>-79.3827675</lng>\n   </start_location>\n   <end_location>\n    <lat>45.5017123</lat>\n    <lng>-73.5672184</lng>\n   </end_location>\n   <start_address>Toronto, ON, Canada</start_address>\n   <end_address>Montreal, QC, Canada</end_address>\n  </leg>\n  <copyrights>Map data ?2016 Google</copyrights>\n  <overview_polyline>\n   <points>e`miGhmocNqO_@kAaJ_Bq_@sL_o@wLq|@_IaR_L|Cyc@`Me[vSi_AgBss@q[oVgc@rAkk@u\\o}@ee@aPig@ib@w|@n_@kjBvJ{`BdSc~@x@wCclBsP{jB}r@ggFuh@{|D}W{z@yb@ilCiYg_ExOmaAfJqs@kKmh@g~A{vCioBqhEq`AomC{a@stAgXi}B}z@}~Fqi@shEhDexBN_cC}yBazNZsyBht@ufBpJkx@aW}eEih@y{HobA}}Ca\\kfFqa@}gGgnA_aKaoEmn\\ypAswJ{RonEkYgnD{|@cmGnZmiByTqxCmt@{bCcMclByp@qtBwUqkCvJecC~Rkt@dKoeAsoAarLms@czKsc@{`Egd@imC}c@czAgf@uiBmWsgAeZm[_`@qqAgZwyCc`@a{@sq@s|@yL{tAwc@kjDex@mmCwz@wbBsp@wnDwt@k}BcDkhDcoAgpDydCwyG{aAqpD_tBssM_hBe`KscAsxEaiAwyHjB}cApWmfB{cAy`OutCo`a@k\\wyBqv@ozCL{lAgOiyBgXahBmCkaCgUs}GmMiwIs_@kfR_SepR_Maq@tAel@veAusDzd@ezD`Pe{B{Cqs@qg@wmAo`@oaCo|@chEej@w|@ir@mpAqp@uhBuXg|Bkc@idIok@u_Oop@_tDua@igFpKcyDiw@kjEs|A}fF_eAawEh@c|D}j@{_EkcAioBg^}rA{z@wvAor@qw@uj@woA_g@_k@o|@uU{iBm|@ojBwvAomBunBkrBywBi`@ssA}MwsAlIylAeH{f@cp@k`BmZsGaqAZec@wUcqAyzBuc@ec@a~@q_@yyAs_DkkDctFu|AsgCuoAqhBqgJwoLkc@ss@wWozA}h@qyAoxDgrGcp@ydA_q@i`@_j@uZ}]oh@wmEuhI_tAcgCuuC_pFsjByfEkfB{hEqtAi`FufDwoKe}D}nMyi@qbBuQ{Mk~@cRkQuU}gCutIgiAcyDusFe{RwwAguHt@{m@to@e`Cva@yhBtHgjBs@yvFgs@oaDaM{r@qE_qEqTe{B_wAszEiiBmiFmsEi~LkpAe~BwkAoqDcfDolLsn@ed@kuAcpDuxAi_Dmn@szCcnFwoNkpDevEmn@_`As}@whCkuDmyLqeAgiDqq@}jAelA{gBkcAmwBmVkkDam@mwBs_Ayx@_[ooAw`A_wDqf@ebDel@akFo_Ai{F_YqoAaBysAdL}qFwGipAhCm|EpHywClWcjAT{n@ip@gaBgeBcbE_r@ee@g`AonAov@gtAgI}MyRgCiF`NkJcHRW</points>\n  </overview_polyline>\n  <bounds>\n   <southwest>\n    <lat>43.6533103</lat>\n    <lng>-79.3827675</lng>\n   </southwest>\n   <northeast>\n    <lat>45.5018118</lat>\n    <lng>-73.5663868</lng>\n   </northeast>\n  </bounds>\n </route>\n <geocoded_waypoint>\n  <geocoder_status>OK</geocoder_status>\n  <type>locality</type>\n  <type>political</type>\n  <place_id>ChIJpTvG15DL1IkRd8S0KlBVNTI</place_id>\n </geocoded_waypoint>\n <geocoded_waypoint>\n  <geocoder_status>OK</geocoder_status>\n  <type>locality</type>\n  <type>political</type>\n  <place_id>ChIJDbdkHFQayUwR7-8fITgxTmU</place_id>\n </geocoded_waypoint>\n</DirectionsResponse>\n",
    "convertedResponse" : "{\"status\":\"OK\",\"route\":{\"bounds\":{\"southwest\":{\"lng\":-79.3827675,\"lat\":43.6533103},\"northeast\":{\"lng\":-73.5663868,\"lat\":45.5018118}},\"summary\":\"ON-401 E\",\"leg\":{\"distance\":{\"text\":\"541 km\",\"value\":540965},\"duration\":{\"text\":\"5 hours 17 mins\",\"value\":18990},\"end_location\":{\"lng\":-73.5672184,\"lat\":45.5017123},\"start_address\":\"Toronto, ON, Canada\",\"end_address\":\"Montreal, QC, Canada\",\"start_location\":{\"lng\":-79.3827675,\"lat\":43.6533103},\"step\":[{\"distance\":{\"text\":\"0.3 km\",\"value\":280},\"html_instructions\":\"Head <b>north<\\/b> on <b>Bay St<\\/b> toward <b>Hagerman St<\\/b>\",\"duration\":{\"text\":\"1 min\",\"value\":61},\"end_location\":{\"lng\":-79.3837332,\"lat\":43.6557259},\"polyline\":{\"points\":\"e`miGhmocNgBf@cBb@KBcErAk@P[H\"},\"start_location\":{\"lng\":-79.3827675,\"lat\":43.6533103},\"travel_mode\":\"DRIVING\"},{\"distance\":{\"text\":\"2.5 km\",\"value\":2492},\"html_instructions\":\"Turn <b>right<\\/b> onto <b>Dundas St W<\\/b>\",\"duration\":{\"text\":\"8 mins\",\"value\":488},\"end_location\":{\"lng\":-79.3545312,\"lat\":43.6618361},\"polyline\":{\"points\":\"iomiGhsocNCWi@gEGc@?CAASaB[}BGk@E_@CKCSM}@?E?CAI?I@M?EVgBBQ\\\\{B?QSqBq@iF[wBe@qDm@{Eo@{ECGEIEIGEII]QOMQMKMOQKQIOIQISESIWEUESCYAWA]?]D}@?GAKAMe@_Da@oCi@}DYsB[yB]aCCUYuB_@wC]qCa@wCa@sCY{BAKYmBe@aDWiBKy@WgBeAoH[{Bs@eFAKUmDWmD\"},\"start_location\":{\"lng\":-79.3837332,\"lat\":43.6557259},\"maneuver\":\"turn-right\",\"travel_mode\":\"DRIVING\"},{\"distance\":{\"text\":\"0.2 km\",\"value\":209},\"html_instructions\":\"Turn <b>left<\\/b> onto the <b>Don Valley Parkway<\\/b> ramp\",\"duration\":{\"text\":\"1 min\",\"value\":21},\"end_location\":{\"lng\":-79.3554817,\"lat\":43.6635765},\"polyline\":{\"points\":\"ouniGx|icNUJy@^oBz@u@Zc@Nk@PEBCBKN\"},\"start_location\":{\"lng\":-79.3545312,\"lat\":43.6618361},\"travel_mode\":\"DRIVING\"},{\"distance\":{\"text\":\"12.9 km\",\"value\":12906},\"html_instructions\":\"Merge onto <b>Don Valley Pkwy N<\\/b>\",\"duration\":{\"text\":\"9 mins\",\"value\":553},\"end_location\":{\"lng\":-79.3366936,\"lat\":43.7628269},\"polyline\":{\"points\":\"k`oiGvbjcNiBXyCl@wAXw@RmEv@ODgB^uBb@MB}Bb@qBb@_AVWJSHm@T{@b@gAt@q@f@w@p@uChCgB|Au@p@a@\\\\o@d@o@d@y@j@e@X]Pm@Z]N}@\\\\qA`@}@\\\\k@Ns@RiCb@aBXyARkCXcDToBHmBJqAHiAHo@BcABYAg@COAWEQEYGSEu@Wo@U{@Yy@[q@WgCcAk@Sk@Qm@S}@Uc@G]EcAIo@Cs@Cu@?s@?q@?s@AyAIu@Gi@I_@Gy@Og@Mc@I_@Ke@OYK_@Qq@Wo@[gAi@c@YeAw@}@q@a@]]Yc@c@g@i@a@e@o@w@{EwFo@y@{AmBiB{BkGaIW]Y_@MQs@kA[k@Wm@Wo@Sq@Ss@Oq@Mq@Ku@Ku@Iw@Ew@CcAA}@@aBDcAFyAFaALgBf@{HJyAJaCBqA@o@?q@Ac@Am@G_AEe@Gk@OgAMy@UcAOk@k@eBSc@Ym@MWS]c@u@[g@[e@{CeEcAaBWg@Wm@e@mAGQe@uAWu@]iAaAkDe@eBSi@Wo@Wm@[o@_@m@W_@SUw@_AOQ[YSO[UQKUMQG]QOEk@Q[IsA[a@GwAU}AQ}@Ms@M_AK}@Mg@IMCMAy@Qk@Qe@QQGe@SWOYOYUQO[W]_@]]Y]W]c@m@{@uAyCqEMSyBeDk@y@Ya@SWW]a@i@a@a@YUq@k@oAs@[Oq@USG]KYG]GSCi@Co@As@@e@BYDw@J{@Rk@R]Le@Ta@RSLKHUNKHURWTa@^YXcDdDa@`@e@`@m@h@aBdA{BrA{@b@oDdBwAj@kBh@oBd@q@N{@L}BRiCRyAJC@c@@i@Bg@@qABu@AuCFkDFcEFyADiBHqAJoBP_D\\\\wBRaDX}Fx@uCb@yFv@}Dd@kAJs@Dk@@u@Bw@?}A@{B@{AAwBAeB?qBB]?]B{DRmCTuIjAmATkC^uARoALy@HmAHcCHyBH{AB{AFiADoAH[B{E^[DC?q@HoC`@_C^sAXyAZeB^yA^e@LK@{Ad@kAZkBd@u@NQBkAP}@N{@LuHlA{AVs@J_HfAcANcAL\"},\"start_location\":{\"lng\":-79.3554817,\"lat\":43.6635765},\"maneuver\":\"merge\",\"travel_mode\":\"DRIVING\"},{\"distance\":{\"text\":\"1.1 km\",\"value\":1070},\"html_instructions\":\"Take the <b>ON-401 E<\\/b> exit\",\"duration\":{\"text\":\"1 min\",\"value\":52},\"end_location\":{\"lng\":-79.3292631,\"lat\":43.768037},\"polyline\":{\"points\":\"ulbjGhmfcNqA?gA@qA@iA@u@?yBIcDIuACUCOAOESGWMOKQQKQIOIOEOGUEQEUCYAWAQ?WCuDC{CESAEAIAo@EaAIwAKoCY_HGmBAOAGAESc@\"},\"start_location\":{\"lng\":-79.3366936,\"lat\":43.7628269},\"maneuver\":\"ramp-right\",\"travel_mode\":\"DRIVING\"},{\"distance\":{\"text\":\"23.0 km\",\"value\":22985},\"html_instructions\":\"Merge onto <b>Ontario 401 Express<\\/b>\",\"duration\":{\"text\":\"12 mins\",\"value\":734},\"end_location\":{\"lng\":-79.0719754,\"lat\":43.8381168},\"polyline\":{\"points\":\"gmcjGz~dcNGqFG_FAaAA{BC_HAkEAyB?qBAkC?oCAmCAsDAaF?{DAaDA}CCaCE{AEkBIiBGiAIqAIaAImAKkAOqAMiAQuAOmAUgBYkBSsA]gC[yB[mBUeBWaBm@{DCMSsAScB]eC_@mCg@gD[uBc@_DWcBYmBo@sEaAyGSoAs@_Fc@sCYeBo@qE]aC[aCuFs_@{@gGSsASuAwBeOiA{HM{@M{@eAmH_CmPM_AAAOsAwBoPm@yEo@kF_AeI{@aIWaC}@uHcI}s@oBgQg@mEiAkJkCcUy@uGeAwHq@uE{@yFiBaL_AkFy@oEi@wC]_B[_BmAcGoAyF}@_E{@yD_@}Ak@uB_@yAY}@s@_Ck@cBa@gAo@eB{@yBw@gBaAuBw@aBm@oA]q@oB_Ew@}A_@y@_@{@c@eA{@yBeA{Cu@cCw@qCU_As@{CYyAScAIg@Mq@a@iCOgAUgBWiCS}BI}@UsCYuDK{AQ{Bg@oGe@iGWgDUsCYyDmBkVWgDgAqNo@eI{@eL_@}EQeCqAqPiA{N_JqjAYiD[oEGsAImBEaDAmA?qA@cABwAB_ABy@FeAFiALmBH}@LkARsAVaBRyAf@kC|@{DxByItD}Nx@eDv@}Cv@aDz@sDTiAPcARmAPoALqAJiAHiAJoCB}@BcB?sBC_A?i@KuCOwBSmBMmAWaBKg@[eBYmAQo@s@eC[y@e@oAQ_@u@_Bc@{@gAqBqA{BqCuEmDyFiAiBgAgBwA_C_BkCqAwBeBuCwBsDa@w@Sc@Yi@Yi@a@s@Yi@Ye@KQo@gA}@eBy@_BeA{BaA}BuHiPuB}DI_@{DiHoCaFgC{EqK}S{BaEoE_IcMqT_BsCOWgHgMyBeD}@wAeDmFkB{Ca@m@uAyBoAqBaAcBw@uA]q@iA}B{@mBk@yAu@qBoCqHkDqJgB_F]_A[_AoAqDkDuJ}HiTqEgMkDuJSk@IUWo@{HoTeSuj@yCoIaCyGgA{CwAuDUk@_@cA_@eAAC?AAA?C@A?G\"},\"start_location\":{\"lng\":-79.3292631,\"lat\":43.768037},\"maneuver\":\"merge\",\"travel_mode\":\"DRIVING\"},{\"distance\":{\"text\":\"428 km\",\"value\":427641},\"html_instructions\":\"Merge onto <b>ON-401 E<\\/b>\",\"duration\":{\"text\":\"3 hours 51 mins\",\"value\":13868},\"end_location\":{\"lng\":-74.3482841,\"lat\":45.2083667},\"polyline\":{\"points\":\"gcqjGzvraNmAgDm@}AY{@M]k@}Aa@iAe@uAc@mAm@gBe@qAe@qAe@sAc@kAWu@Wu@i@wAAEe@qAc@oAqGmQ_Osa@a@kAQk@Wy@U}@Sq@Oq@UoAMk@Mu@WqBa@qDMeAq@{F{Ds\\\\G_@qCsUi@aEUsBWsBU_Cm@oFq@wF[uCWwBIq@[kCy@_H}@gHOkAm@mEyAoKUaBi@yCwBeN_@cCs@kEg@{CQkAkBgLyAiJw@_FcA{GuBkOEWCYESCSCSCS_@uC_@uC}AoLAQiAeKe@sDwAkKuB{NuAcK}AwJyHqf@aBsKe@cDY{AY_B}@wEqDyQeCsMmCgPeBcNqAeLkBwS_BuSqAsO_@kE_BwM{@aLUoGGyGBuFLsFrAw^BoAHeDFkDJqFNoHFwCBiBF_CHqDBcAL}ENuHFeDJaD@o@@oADwAD}ADmAFwB@y@LcFVwKFsD@WJqFP}IDyB@wA?iA?}AA_BA}AEcBEuAGoBKsBKwAK}AM}AQaBUwBWoB[}B]aCWkB[sBQgAGe@]aC_@iC]eCgAwH{Eu\\\\c@}C}B_P}Lk{@_BcLeCeQmByMqBoMCQe@mCy@sEUkAs@sDcA}EuEwTUgAo@aDEUwA}GgBiIi@qCWgAS_AUuAQcA[}BIc@M_AuDwWc@}CAEIm@aAsG}B_PWqBCMMw@OgAgA_IKm@qAgJEYyBcPsDcWc@gDIk@AGMu@kAmIwGce@g@kDYsBKs@OiAYqBMaACMMgAMo@U}Ba@sE[oEOyCUuFMmHCyC?{BFwI?GB_CDoBHyBHmBJcBJaBHiAL_BNiBRwBVqBR_BVmBJs@L}@f@}Cl@eDd@yBJi@Ja@Z{Ah@wBr@qCnBsG`AoC\\\\cAZy@\\\\{@Xq@l@{ATg@z@mBv@}ALY`@u@p@qApA{BjAmB`BmCbAcBfCcEbBsCh@_Av@sAvAyC`B_E`@kAVs@\\\\iAh@iB~@uDf@}BVyAb@cC`@sCJ_A^yDT_DPwDB}@D{ABwA@qA?{@?iAA_AA}@CwACmAE}@Cm@GuAIkAMuBiLegBw@qLwAuTYiEW{D_BwVK_Bk@{Iy@_Mu@oLwAqTc@oGO{BgE}o@wDel@w@{Lq@qKYeEUaDUoDQkCWyDa@eG[eF[yEO_CSuDSaDAGGmAqCyb@IkAI_AS{BMeAMmAIm@_@gCSsA[kB[{Aa@qBaA}D]oAe@aBUs@a@qAe@sAu@qBaAcCeCoGoKwXwCsHc@kAeBsEi@qAkB{EeAsCcByEk@gBm@mBQm@{AeF_AcD_B}FYiAoAiFa@cBg@yBQy@EQ{@kE[cBQ}@i@_Ds@gEo@sDQcAc@yCOiAk@sEa@kDIq@Gs@Ec@a@{DO{AQ{B_@mEUoCQ{BMkBKgBSqDOeDMeD{@uYc@gNi@mQAq@}Ami@u@qUe@sPoAab@CwBKqDEqBEwBIeDKo@AEIuBMsEOcFSsGe@cO]yHE}@E{@]eGa@kGWuD{@uJYoCWcCe@eEYaCkBiOqAiKmCqTg@}DIq@mBiOi@cEYcCwAyLiBcOkCaTeBuNkBkOy@qGKy@yAgLYaCQqAaBeNiB{NKy@kB{O_CqRiC{SqCeUQyAs@}FqAoKcAiIwAoL{@_HcBgNo@iFqAeKmAcKaAyHwBgQ_A}HcBgNq@qFcAgIi@oEs@sFcAkIsBwPeAsIaB{M_Ee\\\\w@sGy@uGY_Cg@mDq@cFmAwIc@eDoEc\\\\mBiNmA}IiAoIgA_Iu@oFm@qEwByOsAsJS}AwAmKsF}`@E[E[mEw[iD{VaFq^cByL_@kCgAoIQmAsDiXoAeJgE_[oA_JeAuHaAkHsAuJ}@yG{@_Gw@iGeFa`@oBmNgCeR}AgLyLa}@SyAkCuRKq@cF{^eA_IqAkJcDkVeBeMoCaSuKcx@_CkQkAiHIg@WqBi@uD_AeHi@{DkB_NgCgRqDgXo@kEc@gD]gCi@{D_A{GqBaO}Ly}@_@iCyG{f@kAwIgQaqA_@wCe@mDa@_DM{@MkAYmCSuBU{BQ{BQyBIsAIeACc@?ICYM}BSqEYwG}Aq]_A}S_@yHWkFQwDCk@Ag@KqCScHO}FKsEEwAGyAK}CU_Fa@gJOkDWaGW_FUcEQkCQmCk@gIG{@Ew@C]G{AIiBWmFCm@AKGgAQgEE}@E}@SeF[iHc@kKi@cMc@qK_@{IO}CK{BIwAGeAMyAM}AIo@Gu@a@eDWgB]uB_A{FaAeGkAiHaBoK[yB]yB]qBiBcL}L_v@uEwY}@uFcDkSiIch@eAaHiAiHQqASqAcBoKuAeJgBeLyAsJ_@gCKy@K}@Iu@KcAEm@GaAEs@CeAE_B?g@?m@?{@@}@@{@@]@]Bu@FeAFy@HcAH}@Jy@L{@T{AFYJi@ZsAb@yBhAcFdAsEjBmIr@uCbBuHfA}E`@qB\\\\kBVyAZwBR_BNqAJaAP_BDo@Da@LaBHuADy@Ds@D{@DiADeABaAB}A@uA@gB?cA?mACsBC}ACcACmACk@MsCGmAKyAMyASiBgEsd@uB}TQmBOcBUiC[wC]}CU{Aa@sCSwAMq@_@yBo@wD_@qBSaAkB_Js@wCo@uCg@uBKc@Kc@kAaFSaAk@_C_AaEe@mBi@eC]sAOw@Oq@s@aDoBiI}@}Ds@iCs@}BmAwDkAaDmAuCkAeCu@uAMW}AsCwAgC}AqCy@}A_@s@OYc@}@]{@k@wAi@}Ae@eBYiAUeAMs@QaAOiAOgAKeAIeAG_AEw@Ci@CaAC{@CyA?aCEkMGaP?yBCcF?eAC{AGgCGyAQ}BKaAMcAOmAg@gDYmBk@gDOo@Ke@c@cB[eA_@eAQk@o@}AkBgEgAcCsA_Dw@cBw@iBe@eAeAcC{AeDe@gAcA{Bq@{As@aBcAeC}@kCs@{By@qCq@mCe@qBaAqEc@oB_AgEm@sCcAqEq@aDoAuFS}@u@yD_B_I_AeFUsAk@iDKs@M{@U_BQwAYcCOuAOaBOoBQ_CQwCMwCKsBIqDCoAAg@A{BA{D?cABeDDuCH_DP}FJyCf@uNPcFLkDj@eOf@{Lh@oMTiFb@_LLcDVaGT}FH{AHoBJcBNuBNyANsAXyB\\\\sBXwA^aBTaATw@f@eBt@wBh@wA\\\\aAhEqLJYb@kA`@kAj@_Bf@qAVs@Rq@`@oARu@\\\\qANo@XsAPy@N{@Ly@ZqBPyAH{@JiAJqAJoADs@DaADuAB{@?a@BuA?}@?y@A{AAy@C_AEqAE_AIwAG{@KsAMwAG{@I{@Gy@MwAI{@KuAMwAWoDMyAMwAMwAOsB[qDsCw]o@aIcA}Lc@eFa@kF_AoLu@cJo@_IcA{LWaDWuC_@oDUcBy@yGaCgReAqIc@gD}@cHsAyK}@cHeBoNG_@WqBQuAo@eFaB}MIo@e@qDiAiJ[kCeAgIk@uE_@uCc@kDSaB[cCc@oDg@yDo@_Fw@uGs@wFq@mF_@{Co@}Eu@mGm@sEGg@g@}D}@gHg@aEc@_EQqBYuDO_CYuEGcAUuDM_COyBE}@KqAKkBOoCAQQkCg@yIm@wJGgAASs@{KUgEaAgPWeEYeFGaAc@eHK_BAOEg@c@oHg@eIk@oJaAsPu@aMcAwPGiAk@qJI}Ao@aKE{@_@{GWgEIqAGqAKcB]yFE_AYoEc@qHYyEa@uGk@kJc@cHYaFGy@s@_MIeA_@{EKoAs@kGOqAUwBQ{AOsAe@cEe@uE]aDg@mESmBSeBYkCSkBUkB]cD_@iDu@aHq@iGa@qDa@yD[sCYcCSmBW}BUuBg@oEc@gE]eDQ{Au@wG[{C]uCo@uFi@{EkEs`@sL{fAY}BWuB[oBm@}C{@aEEOa@_BOq@yBoJw@_DkB{G}@yCcAgDo@yBs@_Co@uBs@{B}@yCgAoDwEwOmHiVw@mCs@{BcAgDMc@w@iCq@yBk@kB]iAOk@k@iB_@mAc@wAg@eB_@mAwAwEiAwD}@yCs@}BUy@w@iC_A}CaA_Dw@iCe@_Bi@eBe@}A[eA]gAa@sA_@sA[cAg@qBQs@k@eC_@cBWyAYaBO_A]uBQgAWwAa@gCc@mC[gBy@gFy@cFs@gE{@iFk@kD}@}Ew@eD_@qAgAgDe@gAgA_Cq@oAu@oAIMU]iBaCaAeAs@u@y@y@c@c@{D{DuIwIuC}CsAkB{CiFcAmCwAsEg@_CeAqFoKik@oGa]mEaVmC{No@_EYaCg@eFe@wFIiAEmAIcDUyRMuIGqEEaDOmEGiAOeBYkCc@qCc@yBa@_Bc@}Ag@aBo@{A]{@g@aAy@}AiAiBkA_BoCmDwCuDuE}FwCuD_EeFq@{@eDeEaDcEc@m@u@_AeC_Da@g@cBwBsCmDwAgBqCkDkAaB_@m@q@qAmA}C]iAk@uBSu@SgAe@uCWmBO}AOyBQoDM}DWoGMaDk@cOUoFSoFM{C[{I_@oHSsCYiDs@aGqA}IM_AaAmGOaAqCiRsAkJuJeo@iB}K{@_Fw@{DkA}EaEuNw@qCmCgJeRcp@sE}OyA_Fa@wAe@aB]iAsAsEWy@q@iBi@yA}@uBqAqCqAcCoAuBaFaIeHcLeEaH_DcFkB}CaA{A_CcEwAgCoBcEgAqCq@iBi@aBwAsEuBuIg@wCo@{D_AuGkBsMmBwM}BwN_BsIqEyTcJ{c@YyAyDaRmAgG]yAc@cBe@cBc@yAa@qA[_AsByFcCqGg@_BkF_OkCyHoUgq@qBgG{@eDw@mEIa@Gg@Kq@E_@Gs@Iy@IkAE_AEs@I{CEcFAy@SqVEmEOoV?e@?m@?EAg@SgZq@}}@MeDIcBOqBOyAIk@o@iDq@oDg@cBkA_DsLsWsCsGsFwLWg@EI[o@uE_KmB}Do@cBkEeMqAkDAEQg@?AyAgEaDiJ{AoEcDqJc@mA}@aCm@aB]aAe@yAmGyQiA{CaCaHo@iBu@{BmDcK_C{GSm@uBgGyBqGqAqDmAcD_AcCmAcD{A{DuAmDoCgHmBeFiB{E_BiEqCmH{FgOqCiHm@}AeCyGyB{F{CeI{FgO_BcEuAqD}Ly[eIcTsDqJsAqDeFwMwByF_BgEk@{AiCyGqFsNy@yB{@_Cg@uAYaAg@aBU{@g@iBm@eCS_Ao@}CUoA]uBe@mCc@kC{@_Fs@gE_AyFwAuI]qBk@iDk@gDQeAw@sEWuA]sBg@wCg@_Da@aC[kBWaBe@mCm@oDc@aCc@kCYcBg@sCUyA]sB[mBUsA]sBe@iCu@qEc@mCy@yEk@gDk@kDk@eDe@mCuBgMc@iCe@qCq@cE}@gFeAqGs@eEk@eD{B}M{@iFgAoGm@qDoD_Tc@oCyAqIs@gEa@kC{@mFi@iDIk@EYmAmIyA}JoCcReDaUkA_I}AwKqA{IkA}HaBaLu@gF{@aGeAcH{CgSw@eFc@yC}AcKi@oDwAgJw@kFc@uCwAoJu@aF[mBuAmI}AmJgAyGeBeKy@eFgCwOWuA[oBc@mC]qB_A{FG]My@aA}F]sB_A}FUuAk@iDq@gEKg@QeAWsAMu@Ow@Oy@Mu@WuAe@kC]qBOw@Ow@]qB}@aF}CoQc@eCoAqHoAwHi@eDE]Kk@mCkPoAqHiAaHeCiOoCoPmAoHi@{C]sBa@iBEWg@{BaCcK_AsDi@oBg@_BuAoE_BcF]gAa@sAe@{AOg@}A{EeCeIUw@Yy@eF_PyD}LmCsIiBaGUu@W{@o@aCc@aBi@yBU_A_AgEYyAc@_Ca@wBy@uEYcBa@qCk@{D{@yF]}BeAyGoBsMcCkPyAuJq@yEmCsQaBqKqAwIc@wCkAwHgBsL{@yFiDmUcCmP_CsOaAuGqAyImBoM_BsKcA}G]wBq@{EiBuLaBwK{G}c@}AoKEQy@eGu@aFaAsGaA{G_AqGU_BMkAIq@MyAKiAM_BOcCGsAImBEwAAkAMaF?eGBcBF_CH}B@i@Bk@ZgFToCp@{Fb@_Dn@uDX{Av@sDrBgJxBgKhDyOZ{An@yDh@wD^aDP}AXaDRaDRaEHcEBeC@cCCaDAcAA_AEaBMgDK{BIgB]kEqBuXwAwRkAgPq@eJ_@cF]sE}Bk[IaA{K}{Ag@yHWeDWeD{AeSaCc\\\\k@aIk@cI_BgTkBcWuCia@q@gJ}@kL{H{fAGy@K_BM}AO{BcQacCqA}PCWkDgh@{AcSyLudBuFmv@aAeMyAcROkCyAqTsHkfA_MgfBqGmz@qAoQiAmPcBmUEg@cBwUoCk_@uCob@gEen@cPa{BmF{s@iAsNw@aKS{CYsDSqCWkDM_BQsCYmDYwDWiDk@kIYsD[kEO{A]qCIw@My@My@SsA]mBQ{@YuAa@kB[qAo@eCaA{De@mBGU{@gDe@kBo@eCg@mBe@kBe@kB[qASw@e@kBoCuKo@cC[qAUw@c@iBcA_Eo@eC[qA_BmGaC}IwAoF{@aDeA}Dq@cC[qAi@mBy@_DQu@]qAuAqFeA_Ey@aD_@{AqDoNI_@EOy@eDmAaF]uAQu@WqA_@qBSuAYsBOwAIy@G{@Gy@Eo@G_AGuAEgACyACyA?{A@yA@yAD{AFwADy@F}@PwBJwAH{@LyAHw@H_AFy@LwAHy@F{@NwAF{@LwAF{@B_@Fw@H{AFy@FyAD{@@_@Bw@FuDDiEA[AeEEsBE{AIcCMgCQuCOmBO{AQ_BOwAS}AW_B[qBq@mDiAsFe@{BgAoFoBoJ_AuEeA{E{DiRuHg_@Y{ASeAO}@YoB]eCQaBMkA]uDOuBO_CIoBI{BGwDCkCEmFWi[OeOKaOGgGK_NAgBE{DEwDEcCCsAG}BEwAGcAMiCQgDQgDOsCk@kKi@wK]uGcAwRk@wKMyBMkCc@gI]aH]qG]iHg@uJCe@Cc@OuCQ_EQcEMsEMoFMiHKsHQwJOiKSqLOiLMeJOsKIeHM_KOuKI}GQqKK{IMuIOqJIuEQ{KKgIIwFSeOKcIIeFI{FIgFIkFK_FMkHSmNYySOiK_@{WQcMKcGEmDMmIMmHYkOOaIOmICqBGsD?KEsC?KE{DIeFU{NIoGQuL?KGuEGqDGuFQqUImJEwEEsEImGEyBm@}b@?EGiDKoHEuCIsEWcMIoE[eNImEKuEOmHEsCGuBQoI]}Qa@sQSoJOqFYeLMgGE_B[}NWcM_@ySm@{ZKuFEeBCcB_@kR?YWkMCiAm@u^E{BKqCKuC[gHYmH_@cJ[kHe@aLWmGSoEQoE]iIQqEYoHMoDCwA?}@EoEAsEAsCCuEAwBA{A?wBAuC?uDAoE?oGAuFAkGCsECqFCoGAsDCqFCmHEkHEiICoHEeK?WCoHCyEC{CI_DMkEQkFUcGOaFQuE[gJUeGOoEIiCm@gQm@oQsAy_@{@cWM_HGgLG{U?}SCoc@Qoz@A}FEqOAwGC}GAcFAcFAaFAmFA}F?sAAkAGqBIsBQuBKkAMkAYoBIe@SgA}@qDWcAy@gCw@cCe@iBYiA_@mBYqBOkAW{CMsBGsBCkAAoA@mA@kA@{@Dw@JqBDg@NiBFi@^uCZaBVqA^{A|@_DRi@Ne@N_@p@{AlIiQrE}J^u@Ta@pBmEP_@jAcDZcARq@lAqFnAoFtBcJLg@bE{Qp@sCZuAf@uB~Iga@T_Ah@eCt@yCf@yBd@wBR_ALy@XgB`@qCR}AT{BPuBV_DJeBDc@HmA?GNqBRwDVmELwBH{AHuA^kH`@iHXuFPqCPyBXqC\\\\uC|@cGpA{HtC{OjC}NDWzAuIjBkKv@eEz@uE^qB\\\\sB~@mFd@oCTqARiAh@wC^yBRyALw@D]D_@F_@Hw@H{@J{@Hy@F_AH}@F}@HwADy@D}@D{@B_AB}@D}@b@oN\\\\gMZqK^mLBgABgAT{IHuC@yBA{BEkBIqBQ}BEe@IaAUeBOaAGc@SeAYoA]yAOi@Qm@]cAi@yAa@aAk@wAw@gBsCwGuF}Mw@gB}@yBkAsC}AsDEMsByEeD{HgBeEM[Um@Wo@Us@Us@Oe@g@qBIa@Ou@Ie@_@_CmCuQiAwHGc@_@_CCQ]aC_@kCYqBYmBo@kEi@mD[sBg@kDo@gEg@kD{@iF_@kC_@}Bw@uFUwAUuAe@cDs@{EQkAkA_Ii@qDc@wCe@}C_@gCg@kDQmAc@sCa@qCIe@Im@U{ASqAQiAKy@a@kC]{BmAqI[qB{@uFy@{FoAmISuAUyAMy@My@Ow@Ow@Ou@Ou@Os@Qu@Qs@Qq@Su@Ss@Sq@Uu@Wu@_@mAeA{C}@aCYu@c@mAe@oAWs@Ys@Ws@i@wA]_Ae@kAWs@Wq@Wq@Wq@Wq@c@kA_@aA]}@c@kAc@iAYs@uAqDo@cBo@aB}@_Co@cBEKi@wAy@}B}@}Bc@iAWo@Yo@Yo@[m@[k@]k@]g@o@_A_@e@_@e@a@c@a@c@c@a@c@a@c@]e@_@e@]c@YmAs@mAu@oBgAaAm@mAu@y@g@{@g@y@m@w@m@a@_@e@c@]]UW[]W[]e@a@g@_@k@k@}@m@cAi@gAYk@[s@O_@Sg@Oa@So@w@qBc@kAe@oAsAsD{BkGiB_FgEiL{AsEeAsCIWM_@{CmI}@cC_CkGqAsDyFwOEMgIwTaBuEcCuGmA}CeAqCeAsC_@iAa@mA]kA]oA[oAc@iBc@qBe@cCi@gDa@sCUiBQ_BQiBo@sG{Fwm@eA}KuAsOcBoQiBiRaCyVwAsNc@gEc@sEYeDQsBMqBOwBMsBKwBMqCs@oQ}@uU[kIU{FYcISoGKwCMiDGiBe@iN_@_Kg@gNs@gT[wI]gJg@qLMuCGgB[kG[wHk@{NkAqZk@mNIuBEwBKoEQqMGqDGsDGkEGmFEuDGoCEwBEwAG{AEuAGyAWkFk@wLUkEi@{JQoDg@{Ki@wKa@cIYiFQoDUiEYiFMqCMuBOqDIuBUmFSkEOqDYiGYiGWkFSqDa@aIg@_J_@eHc@_J_AkRk@yKa@eIOoDMqD[aKOkFIuDi@mSk@{SCs@Cs@SeHOoEEwAE{@IuASsCMwAIw@SiBQ}ASsAa@oCc@iCG[_@mBk@eCYqAm@gCm@eCiAwEcBeHw@aDiAuEeBgHiCsKwB{IeBgHeBgHk@gCWuAk@oE_@kCQsAOwA]kDUoCk@aHwAgQmBuUgBwTkAsNg@gGo@eIw@{J_@oE]iEQsBYoDUsCUqCa@gFu@}IiAkNEo@SaCQwBKwAkBeUM}Ae@wFUwC[oDYmDOsBGs@IeAKuAI_AEy@IuAE_AGsAC_ACu@Ac@CsAAe@AwA?y@?{@?{@?mABgB@c@@u@B}@DqAF}ABy@D{@F}@Bg@@OF{@J{APuBPeBHy@Hm@BSL}@F]LaAHe@DWJe@n@gD\\\\mBToALw@L{@Ly@PyAPqBB_@BYDy@HwB@w@BaA@wB@{A@sCHuODkHDaJFaLDcE?oD?_A?}@CyAAy@C{@Cy@Ey@E_AKuAIcAEe@KeAGc@Io@Ec@QkAUsAUuA_@qBaAgFkJgh@eN_v@eBmJu@aEg@kC_@iBg@kCa@mBs@cDYqAi@gCgA{Eu@_D]sAkAuESs@e@iBq@cCe@cBk@oBs@eC}AgF}AgFUu@sB{GuAqEsAqE}AeFqAqE_BmFeGgSiBcGg@aBy@kC{BwHiBeG}AgFsB}G_CyHs@_Ca@uAsHuV[gAgD}K}BwH_A{Cq@{BiAwDiBaGuAsE}AgFgAuDu@aCgImXeDaLiTat@qAqEg@iBi@qBi@_Cc@mBa@kBYsAYqAWsAg@kC]mBO}@i@gDYsBQqAYsB[mCi@_FU{B[kDc@}FMeCOwCKcBIiBKeDG_CEwAGsDCwBCsC?wC?oD@wBBsD@y@DyBFqCFsDTeKr@w]T}Jj@eYDwBDuB?wA?}@?iAAiBAyACsAK{CGwAKwBQeCSeCSwBAKSeBYwBi@{D_@qCg@oD_AyGg@mDs@_Fe@mDy@}Fy@wF]aCe@cDgF{^E]EUE]CUKs@y@cGq@{Eg@mD}@qGsB_OcAeH?Gm@qDg@cDs@gF_@kCc@qC_@oBa@mB_@sAe@cBa@sA_@gA[y@Yw@Yo@Yo@m@mAe@}@iEqH{BuDcCcEcCuEgAiBiAkBiAkBwAaCyAcC{@uAgAkByAeCwAaCuAaCiB{Cy@uAgAiBy@wA{@wAy@wAwAeC[m@e@cAc@{@_@{@c@cAc@iAc@iAa@iA_@kAa@oASs@]mAUy@YmA[qAa@oBi@kC[kBg@kCm@eDKm@Km@Mo@WwA]kB]kBWsAWuAa@iBUaA[gAMc@Og@Us@a@iAq@}Ae@eA[q@g@aA]k@_@m@wBiD{A_C{@oAm@_Am@}@}@uA{@qA{@sA{A_CkBsCiBqC}@sAi@aA{A}BiAgB}AaCyA{Bm@_A}@sAkAiB}@uA{@sAm@_A{@qA}@uAm@}@y@oAq@eA_AoAq@{@s@{@eAgAq@q@u@q@y@o@u@k@q@k@w@i@g@_@w@k@w@o@u@m@c@a@s@o@u@u@u@w@q@s@_@e@cAmAo@y@o@}@m@}@m@}@[i@QW[i@i@aA]o@[m@[m@Yo@Yk@Yo@q@}Aq@eBo@_B_A}Bq@aBgAqCc@iAcBeE_BaEiAuCkAsCUm@o@{AcAcC_AuBw@}AMU[m@i@aAMUMU]i@]k@kAeBw@eAyBqCiDyDwCgDeCsCqAyAuA_BsA}A_AgAc@e@u@u@a@a@QOw@o@w@m@iAs@{@c@UMc@SsAg@k@SQG}@UgB_@}D}@yHgBcH_BOEkDw@eFkAyFqA{D_A{D}@mA[uEgAuLwCsA[y@Si@Mk@O}@WSESGe@Oi@SgBq@e@S}@a@_Ae@e@Uq@_@o@a@[QgAu@eAw@}AkA_EyCmG}EgDgCmCqBoCuBmDmCqCsBgDgC}EqDwCyB{AkAyAiAkA{@{AiAkA}@YUkCoBoFcEoB{AwAgAWS{AkAKI_Au@kCqBaAu@cCmBeCkB_DcCyI{GaAs@_BmAiBuAi@a@aCiBmByAsAeAo@i@MKmBcBsCeCqCeCQQu@o@kBcBiBaBaDuCsCgC{BqByAqAu@q@iAcAa@_@w@q@yAsAkAiAaA_AkCoCuA{AgCsCuBcCaGwGoGiHqGiHkCyCq@u@uA{AeBqBaAgAeAkAiAsAo@q@_AeAwRsTcDyD]]eAkAqAyA{AcBiF_GSUkFeGgCoCkFgFoCsCw@w@wAuAyBkBuAuAwCyCoEsEy@y@gBiBs@u@mAoA_A}@u@w@a@c@kAmAqBqBwAwAo@q@UWOOgAgAyB{BsBuBW[YYUYQUW[MSIM]i@_@q@Yk@Yo@a@gAWu@Su@IYSw@G]GWG[OaAa@cD]sC_@qCo@eFiA}IaA}H]qCYuBqDyYs@sFi@kEUgBKs@uAeLWsBEa@I{@IeAEk@Ew@KgCEiACsCAyA@uBB{ADuANqCNwBPuBZoDp@eHrAsN~@}JHcAF{@F{@FcAFeBBcB?eA?q@CsACaAI{AIgAG_AKaASwAO_AMu@YuAQu@]oAe@{AsAaEqJmYwLk^{@eCs@oBaAiCg@mAs@_ByA_Dy@}A{@wAy@sA]i@q@aAo@}@o@{@q@s@c@c@c@a@y@o@y@i@w@a@]O[Kk@Qe@MaAQaAKy@Em@Ay@@q@BuCHaELcELqUx@sCJqIVsELmBBsA?yACaAE{@GuAKuAQmAQgASsAYiBa@sAa@qAa@uAi@mAg@{@_@iCsAmAs@s@c@k@a@aAq@m@e@y@q@s@m@u@s@iAeAcBkBeAmAoAaB_AuAe@u@e@u@sBqDqC_Fy@{A_D{FmHwM}N{W}K_SuF}JyDaHcB}CyAeC{@uAm@{@_AsAq@{@a@g@qA{AwA{AeAeAoBeBw@o@wAgA}@k@mBiAyBmAg@UoAk@{@_@iLkEyIgDiNkFyBy@s@Yq@YyB}@k@Ya@SmAs@YSYQ}@q@iA}@u@q@gAgAuBcCq@y@oEyFs@aAo@}@k@_Am@gAu@yAaAuBe@gAg@sA}AcEy@}BgAwCcGaPiBaFaAeCcJwVsD{JuC}H}@cCgB{E{@sBoAmCsAiCiAqBq@gAoAmBEEAAQSa@c@e@k@oAsBcBgCkAiBk@w@[c@kKePIMe@q@S[e@u@Wc@{BmDaDqEQYQWkAeBeA_B{@qAQYq@gAcD_F_B_CyBaDe@o@_AsAoAmBWa@Yc@u@kAuB_DoAqB_@k@a@i@oBaDiDqFuB_DOQaBaC_G}Iu@oAwHiLw@gAEGi@s@mBwCcA}AoAuBgBiCaBeCsAmBs@iAyAcC}BeEgAuBgAuBuAmCsFuKoAaCmBwDeIyOsEaJqIkPsCuF_@u@}CaGcDmGyAwCs@sAgAqBuAoCmBsDaAiBsAgCuAkCuAoCwAoCsAkCgB_DWa@q@gAyAuB_@g@}@iAeAqAi@m@i@i@s@u@wAsAkB_B}AsAiAaAmBaBwDcDkBaBs@o@{A{AsAyAcC{C}A{BqAqBgBqCm@cAwA{BgCcEaA{AqBcDoAoBwAaC{AaCkAiB{AcCq@eA[i@MS{BoD{EuHMSm@aAQU]k@{@sAm@aAk@}@mAmBu@mAq@eAeIsMoD}EcN{PwGkIsAcBmDmEmA{As@}@mA}AcAoA_AmAq@}@Y]mBeCoAaBu@aAw@eAiAuAqAcB}@gAo@w@kMcPiCaD_c@si@kL}NmBaCqCkDuCqDsAaBeEkFkEqFaBsBy@eAy_@af@iCaDsCqDgHaJaFiGeAsA_LqN{CyDcBwBcBwB_AkAgFsG_AkAgLyNgEmFeJgLuAgBoA}AoA}AaAoAaAkAsDwEgJmLq@{@oJuLgCcDgAuAqA}Aa@k@o@w@q@y@q@{@m@w@sAcBq@{@q@y@_@g@q@y@o@{@s@}@[c@SW[c@OU_@i@[g@i@}@Q[k@aA[m@i@cA]q@Yk@Ym@g@kAWo@e@mAWq@Um@Yw@Us@Sm@Ww@]mAUw@I]YgA]wAYmAWqAYyA]kBa@mC]uBYoB[sBc@oC[mBSwAMu@U{AYkBUyA[kBU{AKu@UyASqAUyA[mBSuA[qBc@oC[sBa@mC[oB[sB[sBWsAUoAQy@YqA[uASw@YkAi@iB_@oAQg@Mc@c@oAc@kA[y@Yu@Se@Yo@c@eA[o@]q@[m@[m@[m@i@_Ak@aAaBoCgKaQo@eAoEuHaJiOiGiKgB{CmDaGwBoDcCeEyAeCwBoDk@cAk@aAgByCsBgDqBgDoEqHU_@EGYg@{AeCgKoQqDgGeFsIsZch@sMuTuBoD}CkFqJaP]o@gTm^QYQYm@eA[q@cBwCiD}FEGmCqEiAiBuA}Bs@oAwDoGeCgEiDuFgAaBmBoCmB{BwA}AiBiBqC_Cu@m@s@g@_Ao@}@k@aAi@y@c@[OkEwBaCkAkCoAs@[aBy@wBeA{E_CiCoAuBeAoAm@aCkAsCsAkB{@_Ae@sAq@}@e@_Ag@}@i@{@m@cBmAoAcAe@a@g@c@{@w@y@u@g@g@w@{@w@}@mA{Aw@eAo@}@g@y@k@_AeA}AaAqBkAuBw@yAaByCwAkCeCuEsByDiBgDqBsDqAaC{AqCiC}EoBqDaIyNcKkR{Pq[sOoYwMoVkDsGuEuI{Yyi@kDqGaG{KoCcF{GgM}LeUm@kAIOk@cAaB_DiAsBcAmB_@m@gBmDsD_HoBqDuByDaAiBm@gAqAcCm@iAc@y@iAyBgBeDmCcFcB}CsAeCq@oAq@qAmAyBg@_AsAaCcCsEwDeHq@oAq@mAo@oAqBuDsBwDqA_CoA_C_DaGqBsDaB}CU_@kAaCsB}DqAcCqBuDqCkFwFeKsFeK_DaGmCcF{EcJ_CmEaD_GaDaGaJwPcCuEgCwEiDoGQYgCyEcAmBs@sAoVqd@uB}Dq@qAq@oAq@qAgCwEuAgCs@qAcIgO}BiE{FmK_@q@_@q@_@s@s@sA_@s@i@cACEeE{HaFiJSc@oF_KgAwBw@_Bu@}AM[mBmE]{@o@wAy@sBq@_B}@wBQa@m@wA}@wBo@}Ac@gAw@mB_@{@gAkCaAaCaA_CeBgEiAqCmAuCwh@ipAc@gA?Aw@kBcSif@_`A}}BgDeIaC_G_CyFeBeEwAoDoA}DiA}DcZajAUy@oQwq@mKea@gRcm@aOyc@uFkQsJcZcG{RgHuTySgq@qHgVsJm[oG_Ts@}BqGkSsR_n@oNqd@gEkN{Ku\\\\qBgGwG_S_EsLy@gC}AqEwCwIsA_EsAaEwCwIeFkOoF}OgEkMwBgHqGgTkKc^qGuTgA{DoFoQ_A}C}F_SqByGeCoIcCmIcH{UkI_YmDwLuHsVoLga@mEuOwAcFsBcHuDeMaCiI_Ke]eB{Fu@qCcAaDoH}Vc@sAo@eBYq@Wg@]q@_@q@]q@w@oASYY_@q@{@k@q@y@y@eAaASQMK[UWQc@[YQ]Qc@Wa@QaAc@_@O]MsA][I}A[}Ew@}`@iGaAQc@Ia@Ia@IYGiA]e@O[MqAk@{@c@c@Y{@k@_@WWS_A{@c@c@]]c@e@[e@u@aAi@w@Ye@S]_@q@i@kAc@aAYu@[_AWy@Y{@sAmEmBmGuMyc@eCkImPuj@IWa^ulAsDcM_DmKuBcHoAcEsDeMs@eCy@gCu@iCm@qBs@cCi@iBi@gBy@sCk@iBs@aCyA_Fe@_Bu@iCoFuQmBsGoBwGqAmEaCcI_C_IuA{EaA_DuBiHeAiDuAwEeBuFmA}DcAeDqAiE_C{HcAoDs@gCaBuF}@}CgA{Dy@{C}AoFq@}BK_@Ss@{CcK_BqFM_@]qAgAoDm@wBcAgDoAeEe@_Bo@sBmAgEwAaFy@uCmAiEiAuDgAuDiAaEqAoEcAiDkBqGkAyD{@yCgAqDiAyD]iA]iAu@eC{ByHiHiViBiGuA}EqByG_BmFgBcGkBkGeFeQiC{I{BuH{CcKiCuI{AcF{AaFgB{Fq@}BcByFsBwGmBwGoDwLaGcSeFaQyAaFeH_V_EeNs@cC{GgUgAqDcCkIyAaFqCoJiBqGaBoGqGuWwA}F{@aDwEiRU{@Mk@mCuK{DuOiCeK{AeGoBkIkLod@mDgOyEmRyFsToKsb@?AaC{Jw@_Dq@kCmCsK_DiM{FcVm@oCMs@Mo@WwAw@aFa@sCg@oD}AwKgFs^qBgNm@gEy@eGaAgHoAeJ{AmKgAuHOqAS_BOaBOqAQmBMkBKcBIoBGsBEqB?mA@oA@uBDgCFwBFaBBe@HoAFcAHcALqAP{ANqA^sCRqANy@Hg@VmA^aBVeAj@qBz@wCnIqYzEaPpJc\\\\|B{H^sAbEcN|A{FBEFYrG_UzCiL|@}Ct@oC`AaEt@_Dr@iDp@gDn@gDj@iDv@gFl@iEh@mE^oDXsCZqD\\\\kERwCLqBFqAHwANaEJuCJsENoGRiJ^mOPcINyFN}GTuJZ}MVuKb@sQPiIHsDBcB@aA?mAAwCCwBOkJMgKG_DAsACuAKeGOmJMmHKmGMuHKiGAqAKyFKcGEcCKoHMkIKqHG{CCoAImFEaBGyAU_FAUG}@g@kFa@sDWqBKo@SsAOy@WuAOw@WsAe@qBm@eCYeAw@kCeAkDu@gC_BgFyAaFyA{E{BqHqAiEmAaEsAmEeB{FoAgEs@cCmFgQ}BuHiAyDi@oB[qAa@oBWuAMy@Kq@U}AOwAOyAKwAG{@G}@GyAE{ACwACaB?EGmFEiEYk\\\\S}SAw@IgFO_NEiEWeYk@im@SwNM_QEkBKiBMkBY{C{AkOkAuL}@aJq@qGKkAMkAu@yHkAmL?AkAaLqAsM[yCOkAMcAk@uCg@}Bs@kCi@gB_BgFsFuQmGySsCkJqMob@s@}BoCiJiBwFqLm`@qAeEeQ_l@aHgUcFuPmA}DgB_GcAgDa@sAgAmDq@yBe@yAQe@uGuSoAeEaAcDu@cC]eAiAwDk@iBq@mBWq@a@gAg@oAcAiCu@gB_F{LkAwCqA}CyAuDoJ{UkCqG_C_GoB_FqHaR_C{FsCgHuCiH}B{F}ByFoB}E_C}FoB_FwAoDiAsC}BwFa@gAw@wB}@{B{BwFkAsCiAsCwAmD}@{BuAmD}CcIsAoDy@_CyJiXyJkXKYqAmD{AgEuB}F_BmE{AiE_BkEeAuCeAuCo@eBcAuC}@cCa@iAy@}BgAyCeAuC{@_Cy@{By@_C{@_CeKeYWs@eB_FiBcFqD}J_CuGiBaFaCwGgAwCoAmDiBeFwIgV_BqEaC{GqAqDcFgNIW_AiCISoCqHiGyPgHwRm@aBo@eBo@cBc@kAe@gAYq@g@gAYm@{@cBcAiB}@wAk@aA]g@_@i@[e@a@i@q@}@_@c@q@{@s@{@eD{DsLoNcBoBaAkAaAkAaAmAs@{@o@{@o@{@o@_Ag@w@c@u@e@u@w@wAaAkBu@}Aw@kBcAkCYw@s@qBc@wAu@cCIUsQsl@iAsDq@}Bc@sAs@cCW{@}@{Cq@_C{@uCmBsG_BsF_@qAw@mC_CgIgDiL_A_DsAwEiAwD_BwFo@wBiAyDu@cCs@eCk@mBs@cCe@}Ac@yAq@aCk@mBu@eC]oAm@wBm@qB_@kAW_A}@}C_@qAk@iB]oA{@uC_AcDs@cCgBgGsCwJqAoE}BaIsAuEqAoEkLw`@wAaFsBeHqAsE}AoFsAsE{AoFiBiGqAuEsAuEgBiGwEiPgC}IoDeMgBiGs@eC_BcG}@gDcBoGaG{TwBeIuBaImFgS_DmLwBeIq@eCg@iBWw@Uo@Qc@Sc@Ym@Sa@Uc@Wa@U]U[Y_@]c@c@e@e@c@a@]USYQ[Ue@Y{Ay@gB_A}C_BkCuAqAq@KESMeB}@aB}@oAq@e@[e@]c@]e@a@q@w@QUQU]e@MSIKa@u@]o@Q_@Ug@Qa@Si@gAsC}@_Cy@wBoFqNkCaH}DiKcCsGaBiEsAmDM[cCqGy@wBeBoEkBaF_BeEsCmH_CgGqBmFeCsG_BcEACiAwCc@kAWq@eCsGqCkHcCsGiAsCiCoGWk@[q@e@cA\"},\"start_location\":{\"lng\":-79.0719754,\"lat\":43.8381168},\"maneuver\":\"merge\",\"travel_mode\":\"DRIVING\"},{\"distance\":{\"text\":\"67.3 km\",\"value\":67287},\"html_instructions\":\"Continue onto <b>Autoroute du Souvenir<\\/b>/<b>Autoroute 20<\\/b><div style=\\\"font-size:0.9em\\\">Entering Qu?bec<\\/div>\",\"duration\":{\"text\":\"45 mins\",\"value\":2708},\"end_location\":{\"lng\":-73.6095157,\"lat\":45.4623177},\"polyline\":{\"points\":\"iw|rGvcxdMqC_GqAoCe@aA{AeDACsAqCmDoHwGmNcHcOcEsIu@aB_AqBaBkDwBsEsBkEUe@iB{DoAgCk@mAs@sAw@_BqAkC_AgB{@kBO_@O_@Wo@a@oAM_@I[IWK_@EQU{@WoAWwAa@{BUsA_@}BcGu^k@gDyAoIaGg]aBoJY}Ak@yCa@sB_@cBc@gB_@sA_@qAg@eBk@cBOg@Sg@e@mAy@qBo@}Aq@_Be@kA{@qB]y@mAwCg@kAmAyCaP_`@}@sBs@eBo@}Aq@_B{@uByAmDyDeJ]}@aBgEyCaIaFsMkCeHkCcHiDcJw@qBkCcHwB{FoCcHeBwEuCyHcCoGaCqG}AaEe@mAiCcHmCiHeDoIcA_CmAsCeK}SaC}E}B{EqCuFwBoEKWaAwBUe@uAaDcAgC}@aCk@}AeA}Cu@{Bs@}BYw@sN{c@c^yhAc@sA}@qCqA_EcAcDyB}Gu@_Ci@aBc@kAw@oBSe@Uk@y@gBcBeDi@aAs@mA_@o@e@w@e@s@a@k@]e@a@i@aAmAa@i@cC_De@m@MOiIwJ_d@sj@kAwA_O_RQUsNiQ[a@}BsCup@uy@sDqEuC}DY[W]sCmDkBcCc@m@kBkCiC{Dk@{@uAuBcA}AoEaHyBeDiBuCs@eAw@mAgBqCiDoFy@oAu@qAk@cAk@cA}@iB{@kBcAeCg@qAsEwMgJqXuIeW_B{E}AuEqGiRoDsKw@kC]eAm@oBqAeEgB{FiAsDcL{^{Sqq@}E_PyLi`@Mc@{A}EuMwb@iAmDm@sBaAyCiB_GiGiS}DiMaDiKgB}FwBcHeBwFyBeHMa@a@oA}Qam@iEgNu@eCuAqEoDiL_BkFUs@GQoQ{k@_AwCoBoGqPwi@sG}S}C}Ja@iA_BaFmA{DaAsCKYsDqLuAsEkDcLoEyN_BgFy@iCs@mBu@mB_AaCcA_CqAoC{AwCu@wAi@aAaA_BgDiFgBmCw@iAsB{CwH}KaDwE}BiDqAoBOSoAkBmAmB[e@k@}@oAsBS]gAgBiCgEmAsB{AeCkDyFuBoDqBeDWc@EEMUc@s@w@qAaG{JmEkHaBmCsAuBs@cAa@m@{@aAMMg@g@q@o@aAy@_DgC}AoAkCwB][IIYYuAuA}BgDu@oAcAsB_A{Bm@_BcBmEmFyNm@{A{B{F_@aA_A{BeDqIu@qBkAyCa@iAcAmCk@}A}AwDgAeCWo@a@}@i@mAi@kAWm@e@gA[y@o@yAeAiCcAiCgAqCa@}AQ}@QoAG}@G}AEmC[kSGgEMiHE_BCaDa@iUAm@Am@EgDIkEQuEIgBIqAMeBQkCc@_Fi@yFmAoMUqBKy@OyAIi@Ku@SuAGWWgB]qBg@mCc@sBYkAo@qCwAsF{BcJyHwZgAoEi@uBi@sBG[uAsF[mAW{@W_AWq@IUq@}Ag@gAk@eAMWw@qAEGg@u@Yc@[_@g@k@]e@}AsAu@o@}E_E}AoAgA{@y@m@eAy@_BmAeBwAqAiAwBqB}AsAkAaAIKi@c@ECQOgLoJGECCMK[YCAKKe@]g@e@w@u@[_@c@g@QWQWq@cAk@eAg@eAQa@g@kAa@gA[}@W}@Og@U_AS{@QaAUsASqA_AiHa@sCQiACSIk@OaAQsASsAUuAQaASaAS{@cAsDc@oA_@kAa@kAa@oA_@mA_@qAe@eBw@yCiAuEuAsFiAmEq@oCq@kCk@{Bi@yBa@eBU{@yAmGw@aDq@mCaA{DuDyNm@{BwAsFiAiEYaACKYgAcAiDiAiEwAqFiC_KYeAYeAkF{S{@oDmA_Fo@iCoBsH}AgGuAmF{@gDgAkEi@{Bs@gD_@iBe@}Ba@aCg@sC[mBm@aEWoB[cCUkB]yC[}CWyCSoBUeCSsBEg@O{AGg@[yC]sD_@kEg@yFmAiNYeD_AyKYaDc@}ESiC]mE]wE]cE[qDaAiLs@iIo@cHeA}L_AsKa@iEi@kGc@eFMuAg@wFEg@IwAMuA_@cDq@sFy@cGu@oEaAkF_AmF}AuIo@iDsEqWG_@Ie@ACIa@kAwGoDqSiBcKOy@uEyVqA_HiAoGa@{Bi@wCiCoNm@}DmAeI_CyOaAcHm@_FYaCgAaKsC}Va@gD_AgIaAuG_@sBKm@g@aCq@wCWcAe@cBq@}B_A{CcBsFwAqE_DaKiAoDs@_CYiAgAeEEO[}Am@{C[mBYgBg@kD_@}CU}B_@aFWcE[yFKaCGsAOgEEoAMqFCoAAaBAgDAmA@uGHaN?]DgF@uA?OF}IL}SRoa@h@sbAFqNBsB@iD?uBDiDH{CJ{CRyCDo@BWDg@t@wHd@_EdA}Jf@{EN}APwAFw@HaABs@Bq@By@?_@?{@?u@Ak@C{@Co@IeAEs@Gi@?GAEGa@Im@Ks@e@uCQeAe@wCa@cCMq@UyAMw@QsAKcAOcBEs@Es@Ae@A]?U?s@@mA@qC@wCBkDFgE@iH@_BD{FDiG@uC@{@@yAHcQ@}@?C@_ADeLDqI@kFB_CBaFHyODaJTe]H{NDyFBgHBoEBkE?kAF}KBkD?Q@Y?A?i@?C@a@@kB?}CHsEJoET_JFmBFaDFgCDeCHcLDiCDsFBmEDyHFoKF_I@mAB_F@gC@gADy@DgAHgALuAHs@Ly@Jy@TqAH_@VkARq@V}@z@sCd@{AbBoFj@gBH]l@qBb@cB\\\\{AlAyFvEcU\\\\iBHg@TyANeAXsBRgBHeAHoAFiC@q@h@qQBoA?g@?W?kAAy@Cs@Cm@Ca@AIUsBO_AOy@[uASs@Oc@EMIQOc@CGGOCESg@aAcCkCsGOk@kAqCuAiDaA}BqAyCeBuD}DwIyAcD{@gBc@aAgAcCs@_B}AyDi@wAg@wAi@yAm@cB_@uAc@mAcC{G_BsEsAyDuB_GyAiEo@cBmD_KmAkDqAmDu@oBQ]Q]gAiCuAuCaAsBiB_EyByEyB{EaFwKaE{IuBuEaHuN\"},\"start_location\":{\"lng\":-74.3482841,\"lat\":45.2083667},\"travel_mode\":\"DRIVING\"},{\"distance\":{\"text\":\"0.2 km\",\"value\":226},\"html_instructions\":\"Keep <b>left<\\/b> to continue on <b>Autoroute 720 E<\\/b>\",\"duration\":{\"text\":\"1 min\",\"value\":10},\"end_location\":{\"lng\":-73.6072328,\"lat\":45.4635675},\"polyline\":{\"points\":\"ojntGnzg`MaAsByBeF}@oB\"},\"start_location\":{\"lng\":-73.6095157,\"lat\":45.4623177},\"maneuver\":\"keep-left\",\"travel_mode\":\"DRIVING\"},{\"distance\":{\"text\":\"4.1 km\",\"value\":4059},\"html_instructions\":\"Keep <b>right<\\/b> to stay on <b>Autoroute 720 E<\\/b>\",\"duration\":{\"text\":\"3 mins\",\"value\":179},\"end_location\":{\"lng\":-73.5747258,\"lat\":45.4910209},\"polyline\":{\"points\":\"irntGdlg`MsD_ImBcEgA}BKSsAuCeCwFYi@]o@cAcBs@gAOUcAsAo@w@m@u@i@i@KKu@u@m@g@yAqAo@e@a@UUOyE}Bk@S?AsAg@o@Ua@MeA[_@Mw@WME_@OEAUIQG}Ag@}CaAs@WuBs@y@Wy@Ye@OWI]MWKk@W?Ag@Uu@c@q@g@w@o@o@k@o@s@q@w@m@{@a@q@}@}AUa@aA{Ac@u@]k@yDoHiBgDwO}YGMIMcAoBe@}@o@mAsByD_B}COYIOGKS]aBwCq@mAq@iAaA_Bm@aAoAkBmBuC_@g@]e@sAiBiGqI\"},\"start_location\":{\"lng\":-73.6072328,\"lat\":45.4635675},\"maneuver\":\"keep-right\",\"travel_mode\":\"DRIVING\"},{\"distance\":{\"text\":\"0.8 km\",\"value\":844},\"html_instructions\":\"Take exit <b>4<\\/b> toward <b>Rue de la Montagne N<\\/b>/<b>Rue Saint-Jacques<\\/b>\",\"duration\":{\"text\":\"1 min\",\"value\":69},\"end_location\":{\"lng\":-73.5669047,\"lat\":45.4958323},\"polyline\":{\"points\":\"{}stG`aa`MA[A??AMY_AwAiEgGa@s@}@aBs@yAWo@_@sA[qAGUs@sBUu@YeAcBcHK]IMUUSOIEMIUE[@QAO?KCGACAECGEIEEEKO\"},\"start_location\":{\"lng\":-73.5747258,\"lat\":45.4910209},\"maneuver\":\"ramp-right\",\"travel_mode\":\"DRIVING\"},{\"distance\":{\"text\":\"66 m\",\"value\":66},\"html_instructions\":\"Turn <b>left<\\/b> onto <b>Rue Jean d'Estr?es<\\/b>\",\"duration\":{\"text\":\"1 min\",\"value\":12},\"end_location\":{\"lng\":-73.5675859,\"lat\":45.4961802},\"polyline\":{\"points\":\"}{ttGbp_`Ms@`BQf@\"},\"start_location\":{\"lng\":-73.5669047,\"lat\":45.4958323},\"maneuver\":\"turn-left\",\"travel_mode\":\"DRIVING\"},{\"distance\":{\"text\":\"0.3 km\",\"value\":295},\"html_instructions\":\"Turn <b>right<\\/b> onto <b>Rue Saint Antoine O<\\/b>\",\"duration\":{\"text\":\"1 min\",\"value\":72},\"end_location\":{\"lng\":-73.5651801,\"lat\":45.4982235},\"polyline\":{\"points\":\"c~ttGlt_`M_AoAaAoAKKYQgB_CgAwA_AkA\"},\"start_location\":{\"lng\":-73.5675859,\"lat\":45.4961802},\"maneuver\":\"turn-right\",\"travel_mode\":\"DRIVING\"},{\"distance\":{\"text\":\"0.4 km\",\"value\":359},\"html_instructions\":\"Turn <b>left<\\/b> onto <b>Rue Mansfield<\\/b>\",\"duration\":{\"text\":\"2 mins\",\"value\":94},\"end_location\":{\"lng\":-73.5689619,\"lat\":45.500069},\"polyline\":{\"points\":\"{jutGje_`MIPM^_B~DUj@GRmB~E}A`EO^\"},\"start_location\":{\"lng\":-73.5651801,\"lat\":45.4982235},\"maneuver\":\"turn-left\",\"travel_mode\":\"DRIVING\"},{\"distance\":{\"text\":\"0.2 km\",\"value\":231},\"html_instructions\":\"Turn <b>right<\\/b> onto <b>Boulevard Ren?-L?vesque O<\\/b>\",\"duration\":{\"text\":\"1 min\",\"value\":57},\"end_location\":{\"lng\":-73.5673445,\"lat\":45.5018118},\"polyline\":{\"points\":\"mvutG~|_`MuBoBiAaA{CqC\"},\"start_location\":{\"lng\":-73.5689619,\"lat\":45.500069},\"maneuver\":\"turn-right\",\"travel_mode\":\"DRIVING\"},{\"distance\":{\"text\":\"15 m\",\"value\":15},\"html_instructions\":\"Turn <b>right<\\/b> onto <b>Boulevard Robert-Bourassa<\\/b>\",\"duration\":{\"text\":\"1 min\",\"value\":12},\"end_location\":{\"lng\":-73.5672184,\"lat\":45.5017123},\"polyline\":{\"points\":\"iavtGzr_`MRW\"},\"start_location\":{\"lng\":-73.5673445,\"lat\":45.5018118},\"maneuver\":\"turn-right\",\"travel_mode\":\"DRIVING\"}]},\"copyrights\":\"Map data ?2016 Google\",\"overview_polyline\":{\"points\":\"e`miGhmocNqO_@kAaJ_Bq_@sL_o@wLq|@_IaR_L|Cyc@`Me[vSi_AgBss@q[oVgc@rAkk@u\\\\o}@ee@aPig@ib@w|@n_@kjBvJ{`BdSc~@x@wCclBsP{jB}r@ggFuh@{|D}W{z@yb@ilCiYg_ExOmaAfJqs@kKmh@g~A{vCioBqhEq`AomC{a@stAgXi}B}z@}~Fqi@shEhDexBN_cC}yBazNZsyBht@ufBpJkx@aW}eEih@y{HobA}}Ca\\\\kfFqa@}gGgnA_aKaoEmn\\\\ypAswJ{RonEkYgnD{|@cmGnZmiByTqxCmt@{bCcMclByp@qtBwUqkCvJecC~Rkt@dKoeAsoAarLms@czKsc@{`Egd@imC}c@czAgf@uiBmWsgAeZm[_`@qqAgZwyCc`@a{@sq@s|@yL{tAwc@kjDex@mmCwz@wbBsp@wnDwt@k}BcDkhDcoAgpDydCwyG{aAqpD_tBssM_hBe`KscAsxEaiAwyHjB}cApWmfB{cAy`OutCo`a@k\\\\wyBqv@ozCL{lAgOiyBgXahBmCkaCgUs}GmMiwIs_@kfR_SepR_Maq@tAel@veAusDzd@ezD`Pe{B{Cqs@qg@wmAo`@oaCo|@chEej@w|@ir@mpAqp@uhBuXg|Bkc@idIok@u_Oop@_tDua@igFpKcyDiw@kjEs|A}fF_eAawEh@c|D}j@{_EkcAioBg^}rA{z@wvAor@qw@uj@woA_g@_k@o|@uU{iBm|@ojBwvAomBunBkrBywBi`@ssA}MwsAlIylAeH{f@cp@k`BmZsGaqAZec@wUcqAyzBuc@ec@a~@q_@yyAs_DkkDctFu|AsgCuoAqhBqgJwoLkc@ss@wWozA}h@qyAoxDgrGcp@ydA_q@i`@_j@uZ}]oh@wmEuhI_tAcgCuuC_pFsjByfEkfB{hEqtAi`FufDwoKe}D}nMyi@qbBuQ{Mk~@cRkQuU}gCutIgiAcyDusFe{RwwAguHt@{m@to@e`Cva@yhBtHgjBs@yvFgs@oaDaM{r@qE_qEqTe{B_wAszEiiBmiFmsEi~LkpAe~BwkAoqDcfDolLsn@ed@kuAcpDuxAi_Dmn@szCcnFwoNkpDevEmn@_`As}@whCkuDmyLqeAgiDqq@}jAelA{gBkcAmwBmVkkDam@mwBs_Ayx@_[ooAw`A_wDqf@ebDel@akFo_Ai{F_YqoAaBysAdL}qFwGipAhCm|EpHywClWcjAT{n@ip@gaBgeBcbE_r@ee@g`AonAov@gtAgI}MyRgCiF`NkJcHRW\"}},\"geocoded_waypoint\":[{\"place_id\":\"ChIJpTvG15DL1IkRd8S0KlBVNTI\",\"geocoder_status\":\"OK\",\"type\":[\"locality\",\"political\"]},{\"place_id\":\"ChIJDbdkHFQayUwR7-8fITgxTmU\",\"geocoder_status\":\"OK\",\"type\":[\"locality\",\"political\"]}]}",
    "statusCode" : 200,
    "responseHeaders" : {
      "X-Frame-Options" : [ "SAMEORIGIN" ],
      "Vary" : [ "Accept-Language" ],
      "Date" : [ "Fri, 22 Apr 2016 07:06:27 GMT" ],
      "X-XSS-Protection" : [ "1; mode=block" ],
      "Expires" : [ "Sat, 23 Apr 2016 07:06:27 GMT" ],
      "Content-Type" : [ "application/xml; charset=UTF-8" ],
      "Server" : [ "mafe" ],
      "Cache-Control" : [ "public, max-age=86400" ]
    },
    "contentType" : "application/xml",
    "cookies" : [ ]
  },
  "redirectEnabled" : true
}